<?xml version="1.0" encoding="UTF-8" standalone="no"?>
<!-- Created with Inkscape (http://www.inkscape.org/) -->

<svg
   xmlns:dc="http://purl.org/dc/elements/1.1/"
   xmlns:cc="http://creativecommons.org/ns#"
   xmlns:rdf="http://www.w3.org/1999/02/22-rdf-syntax-ns#"
   xmlns:svg="http://www.w3.org/2000/svg"
   xmlns="http://www.w3.org/2000/svg"
   xmlns:sodipodi="http://sodipodi.sourceforge.net/DTD/sodipodi-0.dtd"
   xmlns:inkscape="http://www.inkscape.org/namespaces/inkscape"
   width="400mm"
   height="297mm"
   viewBox="0 0 400 297"
   version="1.1"
   id="svg8"
   inkscape:version="0.92.2 2405546, 2018-03-11"
   sodipodi:docname="blow.svg">
  <defs
     id="defs2" />
  <sodipodi:namedview
     id="base"
     pagecolor="#ffffff"
     bordercolor="#666666"
     borderopacity="1.0"
     inkscape:pageopacity="0.0"
     inkscape:pageshadow="2"
     inkscape:zoom="0.35355339"
     inkscape:cx="1.4285715"
     inkscape:cy="560"
     inkscape:document-units="mm"
     inkscape:current-layer="layer1"
     showgrid="false"
     inkscape:window-width="1920"
     inkscape:window-height="1007"
     inkscape:window-x="0"
     inkscape:window-y="0"
     inkscape:window-maximized="1" />
  <metadata
     id="metadata5">
    <rdf:RDF>
      <cc:Work
         rdf:about="">
        <dc:format>image/svg+xml</dc:format>
        <dc:type
           rdf:resource="http://purl.org/dc/dcmitype/StillImage" />
        <dc:title></dc:title>
      </cc:Work>
    </rdf:RDF>
  </metadata>
  <g
     inkscape:label="Layer 1"
     inkscape:groupmode="layer"
     id="layer1">
    <path
       style="opacity:1;fill:#fd0000;fill-opacity:1;fill-rule:nonzero;stroke:#0d0d0f;stroke-width:1.22913253;stroke-linecap:round;stroke-linejoin:miter;stroke-miterlimit:4;stroke-dasharray:none;stroke-dashoffset:0;stroke-opacity:0.98409095;paint-order:markers fill stroke"
       d="m 1.0330548,122.23571 13.4205742,-6.52267 c 28.525458,34.46999 28.427982,51.34887 0,84.68872 L 1.314988,195.51823 C 26.678412,175.60336 25.994143,144.49671 1.0330548,122.23571 Z"
       id="rect882"
       inkscape:connector-curvature="0"
       sodipodi:nodetypes="ccccc" />
    <path
       style="opacity:1;fill:#fd0000;fill-opacity:1;fill-rule:nonzero;stroke:#0d0d0f;stroke-width:1.76734316;stroke-linecap:round;stroke-linejoin:miter;stroke-miterlimit:4;stroke-dasharray:none;stroke-dashoffset:0;stroke-opacity:0.98409095;paint-order:markers fill stroke"
       d="m 41.525236,104.52018 19.297153,-9.378811 c 41.016151,49.563641 40.876001,73.833421 0,121.772091 L 41.930622,209.89153 C 78.400144,181.25636 77.41625,136.5288 41.525236,104.52018 Z"
       id="rect882-1"
       inkscape:connector-curvature="0"
       sodipodi:nodetypes="ccccc" />
    <path
       style="opacity:1;fill:#fd0000;fill-opacity:1;fill-rule:nonzero;stroke:#0d0d0f;stroke-width:2.46251965;stroke-linecap:round;stroke-linejoin:miter;stroke-miterlimit:4;stroke-dasharray:none;stroke-dashoffset:0;stroke-opacity:0.98409095;paint-order:markers fill stroke"
       d="M 94.791524,83.788608 121.67913,70.720684 c 57.14967,69.059286 56.95438,102.875476 0,169.670576 L 95.356368,230.60729 C 146.17104,190.70862 144.80013,128.38767 94.791524,83.788608 Z"
       id="rect882-1-2"
       inkscape:connector-curvature="0"
       sodipodi:nodetypes="ccccc" />
    <path
       style="opacity:1;fill:#fd0000;fill-opacity:1;fill-rule:nonzero;stroke:#0d0d0f;stroke-width:3.291013;stroke-linecap:round;stroke-linejoin:miter;stroke-miterlimit:4;stroke-dasharray:none;stroke-dashoffset:0;stroke-opacity:0.98409095;paint-order:markers fill stroke"
       d="m 163.44222,56.65756 35.93369,-17.464515 c 76.37717,92.293695 76.11619,137.487025 0,226.754775 l -35.17883,-13.0757 c 67.91083,-53.32221 66.07868,-136.61053 -0.75486,-196.21456 z"
       id="rect882-1-2-7"
       inkscape:connector-curvature="0"
       sodipodi:nodetypes="ccccc" />
    <path
       style="opacity:1;fill:#fd0000;fill-opacity:1;fill-rule:nonzero;stroke:#0d0d0f;stroke-width:4.23356819;stroke-linecap:round;stroke-linejoin:miter;stroke-miterlimit:4;stroke-dasharray:none;stroke-dashoffset:0;stroke-opacity:0.98409095;paint-order:markers fill stroke"
       d="m 238.09238,25.206488 46.2252,-22.4664016 c 98.25184,118.7268836 97.91611,176.8636836 0,291.6980036 l -45.25413,-16.82066 c 87.36067,-68.59382 85.00379,-175.73615 -0.97107,-252.410942 z"
       id="rect882-1-2-7-0"
       inkscape:connector-curvature="0"
       sodipodi:nodetypes="ccccc" />
  </g>
</svg>
