<?xml version="1.0" encoding="UTF-8" standalone="no"?>
<!-- Created with Inkscape (http://www.inkscape.org/) -->

<svg
   xmlns:dc="http://purl.org/dc/elements/1.1/"
   xmlns:cc="http://creativecommons.org/ns#"
   xmlns:rdf="http://www.w3.org/1999/02/22-rdf-syntax-ns#"
   xmlns:svg="http://www.w3.org/2000/svg"
   xmlns="http://www.w3.org/2000/svg"
   xmlns:xlink="http://www.w3.org/1999/xlink"
   xmlns:sodipodi="http://sodipodi.sourceforge.net/DTD/sodipodi-0.dtd"
   xmlns:inkscape="http://www.inkscape.org/namespaces/inkscape"
   width="330mm"
   height="178.2mm"
   viewBox="0 0 330 178.2"
   version="1.1"
   id="svg2436"
   inkscape:version="0.92.2 2405546, 2018-03-11"
   sodipodi:docname="glow_tutorialButton.svg">
  <defs
     id="defs2430">
    <linearGradient
       inkscape:collect="always"
       id="linearGradient2995">
      <stop
         style="stop-color:#ff8f00;stop-opacity:1;"
         offset="0"
         id="stop2991" />
      <stop
         style="stop-color:#fff900;stop-opacity:0.98984772"
         offset="1"
         id="stop2993" />
    </linearGradient>
    <radialGradient
       inkscape:collect="always"
       xlink:href="#linearGradient2995"
       id="radialGradient2997-9"
       cx="149.67857"
       cy="193.81248"
       fx="149.67857"
       fy="193.81248"
       r="150.66667"
       gradientTransform="matrix(1.5995363,-2.7984987e-5,1.4642829e-5,0.83663705,-73.416921,46.785018)"
       gradientUnits="userSpaceOnUse" />
  </defs>
  <sodipodi:namedview
     id="base"
     pagecolor="#ffffff"
     bordercolor="#666666"
     borderopacity="1.0"
     inkscape:pageopacity="0.0"
     inkscape:pageshadow="2"
     inkscape:zoom="0.35"
     inkscape:cx="-334.42196"
     inkscape:cy="560"
     inkscape:document-units="mm"
     inkscape:current-layer="layer1"
     showgrid="false"
     inkscape:window-width="1920"
     inkscape:window-height="1007"
     inkscape:window-x="0"
     inkscape:window-y="0"
     inkscape:window-maximized="1" />
  <metadata
     id="metadata2433">
    <rdf:RDF>
      <cc:Work
         rdf:about="">
        <dc:format>image/svg+xml</dc:format>
        <dc:type
           rdf:resource="http://purl.org/dc/dcmitype/StillImage" />
        <dc:title />
      </cc:Work>
    </rdf:RDF>
  </metadata>
  <g
     inkscape:label="Layer 1"
     inkscape:groupmode="layer"
     id="layer1"
     transform="translate(0,-118.8)">
    <rect
       style="opacity:1;fill:url(#radialGradient2997-9);fill-opacity:1;fill-rule:nonzero;stroke:#000000;stroke-width:5.49154043;stroke-linecap:round;stroke-linejoin:miter;stroke-miterlimit:4;stroke-dasharray:none;stroke-dashoffset:0;stroke-opacity:1;paint-order:markers fill stroke"
       id="rect2981-43"
       width="325.4653"
       height="171.8656"
       x="3.2695711"
       y="122.99875"
       ry="85.932793" />
    <g
       aria-label="Tutorial"
       transform="matrix(2.1188086,0,0,2.1188086,-182.68135,-188.05196)"
       style="font-style:normal;font-variant:normal;font-weight:normal;font-stretch:normal;font-size:40px;line-height:1.25;font-family:Balker;-inkscape-font-specification:'Balker, Normal';font-variant-ligatures:normal;font-variant-caps:normal;font-variant-numeric:normal;font-feature-settings:normal;text-align:start;letter-spacing:0px;word-spacing:0px;writing-mode:lr-tb;text-anchor:start;fill:#ffffff;fill-opacity:0.98019804;stroke:#030303;stroke-width:1.07793903;stroke-miterlimit:4;stroke-dasharray:none;stroke-opacity:1"
       id="flowRoot1840">
      <path
         d="m 97.142578,168.15774 q -0.996094,0 -0.996094,1.01563 0,0.99609 0.996094,0.99609 h 10.156252 v 30.9961 q 0,0.99609 0.99609,0.99609 1.01563,0 1.01563,-0.99609 v -30.9961 h 10.8789 q 0.9961,0 0.9961,-0.99609 0,-1.01563 -0.9961,-1.01563 z"
         style=""
         id="path3196" />
      <path
         d="m 133.45117,182.0054 q 0,-0.99609 -0.99609,-0.99609 -0.9961,0 -0.9961,0.99609 v 9.92188 q -0.11718,3.35937 -2.40234,5.76171 -2.40234,2.48047 -5.76172,2.48047 -3.35937,0 -5.76172,-2.48047 -2.40234,-2.51953 -2.40234,-6.13281 v -0.11719 -9.43359 q 0,-0.99609 -0.99609,-0.99609 -0.9961,0 -0.9961,0.99609 v 10.60547 h 0.0391 q 0.3125,3.75 2.91016,6.48437 2.96875,3.06641 7.20703,3.06641 4.23828,0 7.20703,-3.06641 0.50782,-0.5664 0.95703,-1.17187 v 3.24219 q 0,0.99609 0.9961,0.99609 0.99609,0 0.99609,-0.99609 z"
         style=""
         id="path3198" />
      <path
         d="m 145.24805,182.72806 0.0391,18.4375 q 0,0.99609 0.99609,0.99609 0.9961,0 0.9961,-0.99609 l 0.0391,-18.39844 7.92969,-0.0391 q 0.99609,0 0.99609,-0.9961 0,-1.01562 -0.99609,-1.01562 l -7.92969,-0.0391 -0.0391,-5.19532 q 0,-0.99609 -0.9961,-0.99609 -0.99609,0 -0.99609,0.99609 l -0.0391,5.19532 -7.48047,0.0391 q -0.9961,0 -0.9961,1.01562 0,0.9961 0.9961,0.9961 l 7.48047,0.0391 z"
         style=""
         id="path3200" />
      <path
         d="m 168.02148,181.00931 q 4.23829,0 7.1875,3.10547 2.96875,3.08593 2.96875,7.4414 0,4.41406 -2.96875,7.51953 -2.94921,3.08594 -7.1875,3.08594 -4.23828,0 -7.20703,-3.08594 -2.94922,-3.10547 -2.94922,-7.51953 0,-4.35547 2.94922,-7.4414 2.96875,-3.10547 7.20703,-3.10547 z m 0,1.99218 q -3.35937,0 -5.76171,2.5 -2.40235,2.5 -2.40235,6.05469 0,3.61328 2.40235,6.11328 2.40234,2.5 5.76171,2.5 3.35938,0 5.76172,-2.5 2.40235,-2.5 2.40235,-6.11328 0,-3.55469 -2.40235,-6.05469 -2.40234,-2.5 -5.76172,-2.5 z"
         style=""
         id="path3202" />
      <path
         d="m 183.29492,181.65384 q 0,-1.01563 -0.99609,-1.01563 -0.9961,0 -0.9961,1.01563 v 19.51172 q 0,0.99609 0.9961,0.99609 0.99609,0 0.99609,-0.99609 v -12.83203 q 0.11719,-2.28516 1.5625,-3.88672 1.5625,-1.75782 3.67188,-1.75782 2.08984,0 3.65234,1.75782 1.5625,1.71875 1.5625,4.23828 0,0.99609 0.99609,0.99609 0.9961,0 0.9961,-0.99609 0,-3.28125 -2.10938,-5.64453 -2.08984,-2.36328 -5.09765,-2.36328 -3.02735,0 -5.15625,2.36328 -0.0391,0.0781 -0.0781,0.11718 z"
         style=""
         id="path3204" />
      <path
         d="m 199.4668,188.00149 v 13.16407 q 0,0.99609 -0.9961,0.99609 -0.99609,0 -0.99609,-0.99609 v -13.16407 q 0,-0.99609 0.99609,-0.99609 0.9961,0 0.9961,0.99609 z m -1.99219,-3.125 v -2.98828 q 0,-0.99609 0.99609,-0.99609 0.9961,0 0.9961,0.99609 v 2.98828 q 0,1.01563 -0.9961,1.01563 -0.99609,0 -0.99609,-1.01563 z"
         style=""
         id="path3206" />
      <path
         d="m 212.86523,181.00931 q -4.23828,0 -7.20703,3.10547 -2.94922,3.08593 -2.94922,7.4414 0,4.41406 2.94922,7.53906 2.96875,3.06641 7.20703,3.06641 4.23829,0 7.20704,-3.06641 0.46875,-0.52734 0.91796,-1.09375 v 0.72266 h 0.0391 v 2.44141 q 0,0.99609 0.99609,0.99609 0.99609,0 0.99609,-0.99609 v -2.44141 h 0.0391 v -14.72656 h -0.0391 v -1.99219 q 0,-0.99609 -0.99609,-0.99609 -0.99609,0 -0.99609,0.99609 v 1.99219 h -0.0391 v 1.21094 q -0.44921,-0.56641 -0.91796,-1.07422 -2.96875,-3.125 -7.20704,-3.125 z m 0,1.99218 q 3.35938,0 5.76172,2.51954 2.07032,2.20703 2.36328,5.19531 v 1.73828 q -0.29296,3.02734 -2.36328,5.23437 -2.40234,2.48047 -5.76172,2.48047 -3.35937,0 -5.76171,-2.48047 -2.40235,-2.51953 -2.40235,-6.13281 0,-3.55469 2.40235,-6.03515 2.40234,-2.51954 5.76171,-2.51954 z"
         style=""
         id="path3208" />
      <path
         d="m 228.29492,169.17337 v 31.99219 q 0,0.99609 -0.99609,0.99609 -0.9961,0 -0.9961,-0.99609 v -31.99219 q 0,-1.01563 0.9961,-1.01563 0.99609,0 0.99609,1.01563 z"
         style=""
         id="path3210" />
    </g>
    <rect
       style="opacity:0.60799997;fill:#ffffff;fill-opacity:1;fill-rule:nonzero;stroke:#000000;stroke-width:5.46813393;stroke-linecap:round;stroke-linejoin:miter;stroke-miterlimit:4;stroke-dasharray:none;stroke-dashoffset:0;stroke-opacity:1;paint-order:markers fill stroke"
       id="rect2981-4"
       width="324.07806"
       height="171.13306"
       x="4.6567993"
       y="122.99875"
       ry="85.566521" />
  </g>
</svg>
