<?xml version="1.0" encoding="UTF-8" standalone="no"?>
<!-- Created with Inkscape (http://www.inkscape.org/) -->

<svg
   xmlns:dc="http://purl.org/dc/elements/1.1/"
   xmlns:cc="http://creativecommons.org/ns#"
   xmlns:rdf="http://www.w3.org/1999/02/22-rdf-syntax-ns#"
   xmlns:svg="http://www.w3.org/2000/svg"
   xmlns="http://www.w3.org/2000/svg"
   xmlns:xlink="http://www.w3.org/1999/xlink"
   xmlns:sodipodi="http://sodipodi.sourceforge.net/DTD/sodipodi-0.dtd"
   xmlns:inkscape="http://www.inkscape.org/namespaces/inkscape"
   width="1920mm"
   height="1080mm"
   viewBox="0 0 1920 1080"
   version="1.1"
   id="svg1096"
   inkscape:version="0.92.2 2405546, 2018-03-11"
   sodipodi:docname="greetingTitle.svg">
  <defs
     id="defs1090">
    <linearGradient
       inkscape:collect="always"
       xlink:href="#linearGradient2051"
       id="linearGradient2053"
       gradientUnits="userSpaceOnUse"
       x1="327.89877"
       y1="115.04056"
       x2="572.55823"
       y2="115.04056" />
    <linearGradient
       id="linearGradient2051"
       inkscape:collect="always">
      <stop
         id="stop2047"
         offset="0"
         style="stop-color:#00ff42;stop-opacity:1" />
      <stop
         id="stop2049"
         offset="1"
         style="stop-color:#ff0f04;stop-opacity:0.90196079" />
    </linearGradient>
    <linearGradient
       inkscape:collect="always"
       xlink:href="#linearGradient2051"
       id="linearGradient1770"
       gradientUnits="userSpaceOnUse"
       x1="327.89877"
       y1="115.04056"
       x2="572.55823"
       y2="115.04056" />
    <linearGradient
       inkscape:collect="always"
       xlink:href="#linearGradient2051"
       id="linearGradient1772"
       gradientUnits="userSpaceOnUse"
       x1="327.89877"
       y1="115.04056"
       x2="572.55823"
       y2="115.04056" />
    <linearGradient
       inkscape:collect="always"
       xlink:href="#linearGradient2051"
       id="linearGradient1774"
       gradientUnits="userSpaceOnUse"
       x1="327.89877"
       y1="115.04056"
       x2="572.55823"
       y2="115.04056" />
    <linearGradient
       inkscape:collect="always"
       xlink:href="#linearGradient2051"
       id="linearGradient1776"
       gradientUnits="userSpaceOnUse"
       x1="327.89877"
       y1="115.04056"
       x2="572.55823"
       y2="115.04056" />
    <linearGradient
       inkscape:collect="always"
       xlink:href="#linearGradient2051"
       id="linearGradient1778"
       gradientUnits="userSpaceOnUse"
       x1="327.89877"
       y1="115.04056"
       x2="572.55823"
       y2="115.04056" />
    <linearGradient
       inkscape:collect="always"
       xlink:href="#linearGradient2051"
       id="linearGradient1780"
       gradientUnits="userSpaceOnUse"
       x1="327.89877"
       y1="115.04056"
       x2="572.55823"
       y2="115.04056" />
    <linearGradient
       inkscape:collect="always"
       xlink:href="#linearGradient2051"
       id="linearGradient1782"
       gradientUnits="userSpaceOnUse"
       x1="327.89877"
       y1="115.04056"
       x2="572.55823"
       y2="115.04056" />
    <linearGradient
       inkscape:collect="always"
       xlink:href="#linearGradient2051"
       id="linearGradient1784"
       gradientUnits="userSpaceOnUse"
       x1="327.89877"
       y1="115.04056"
       x2="572.55823"
       y2="115.04056" />
    <linearGradient
       inkscape:collect="always"
       xlink:href="#linearGradient2051"
       id="linearGradient1786"
       gradientUnits="userSpaceOnUse"
       x1="327.89877"
       y1="115.04056"
       x2="572.55823"
       y2="115.04056" />
    <linearGradient
       inkscape:collect="always"
       xlink:href="#linearGradient2051"
       id="linearGradient1788"
       gradientUnits="userSpaceOnUse"
       x1="327.89877"
       y1="115.04056"
       x2="572.55823"
       y2="115.04056" />
    <linearGradient
       inkscape:collect="always"
       xlink:href="#linearGradient2051"
       id="linearGradient1790"
       gradientUnits="userSpaceOnUse"
       x1="327.89877"
       y1="115.04056"
       x2="572.55823"
       y2="115.04056" />
    <linearGradient
       inkscape:collect="always"
       xlink:href="#linearGradient2051"
       id="linearGradient1792"
       gradientUnits="userSpaceOnUse"
       x1="327.89877"
       y1="115.04056"
       x2="572.55823"
       y2="115.04056" />
    <linearGradient
       inkscape:collect="always"
       xlink:href="#linearGradient2051"
       id="linearGradient1794"
       gradientUnits="userSpaceOnUse"
       x1="327.89877"
       y1="115.04056"
       x2="572.55823"
       y2="115.04056" />
  </defs>
  <sodipodi:namedview
     id="base"
     pagecolor="#ffffff"
     bordercolor="#666666"
     borderopacity="1.0"
     inkscape:pageopacity="0.0"
     inkscape:pageshadow="2"
     inkscape:zoom="0.061871843"
     inkscape:cx="-118.57143"
     inkscape:cy="217.14286"
     inkscape:document-units="mm"
     inkscape:current-layer="layer1"
     showgrid="false"
     inkscape:window-width="1920"
     inkscape:window-height="1007"
     inkscape:window-x="0"
     inkscape:window-y="0"
     inkscape:window-maximized="1" />
  <metadata
     id="metadata1093">
    <rdf:RDF>
      <cc:Work
         rdf:about="">
        <dc:format>image/svg+xml</dc:format>
        <dc:type
           rdf:resource="http://purl.org/dc/dcmitype/StillImage" />
        <dc:title></dc:title>
      </cc:Work>
    </rdf:RDF>
  </metadata>
  <g
     inkscape:label="Layer 1"
     inkscape:groupmode="layer"
     id="layer1"
     transform="translate(0,783)">
    <path
       style="fill:none;stroke:#000000;stroke-width:1.62077343px;stroke-linecap:butt;stroke-linejoin:miter;stroke-opacity:1"
       d="m 1802.5124,-293.23916 c 21.4209,15.5802 33.3614,-79.25083 18.9644,-55.21092"
       id="path951-7-9-1"
       inkscape:connector-curvature="0"
       sodipodi:nodetypes="cc" />
    <g
       aria-label="Life is pushing"
       transform="matrix(7.3685411,0,0,7.3685411,-2356.1356,-1337.3305)"
       style="font-style:normal;font-variant:normal;font-weight:normal;font-stretch:normal;font-size:40px;line-height:1.25;font-family:Balker;-inkscape-font-specification:'Balker, Normal';font-variant-ligatures:normal;font-variant-caps:normal;font-variant-numeric:normal;font-feature-settings:normal;text-align:start;letter-spacing:0px;word-spacing:0px;writing-mode:lr-tb;text-anchor:start;fill:url(#linearGradient2053);fill-opacity:1;stroke:#383838;stroke-width:0.8313393;stroke-miterlimit:4;stroke-dasharray:none;stroke-opacity:1"
       id="flowRoot834">
      <path
         d="m 330.30664,93.751495 q 0,-1.015625 -0.99609,-1.015625 -0.9961,0 -0.9961,1.015625 v 31.874995 0.11719 q 0,0.35156 0.15625,0.60547 l 0.0391,0.0781 0.0391,0.0391 0.0391,0.0391 q 0.0781,0.0781 0.15625,0.11719 0.25391,0.11719 0.56641,0.11719 h 0.11718 19.4336 q 1.01562,0 1.01562,-0.9961 0,-0.99609 -1.01562,-0.99609 h -18.55469 z"
         style="fill:url(#linearGradient1770);fill-opacity:1"
         id="path922"
         inkscape:connector-curvature="0" />
      <path
         d="m 351.79102,112.57962 v 13.16406 q 0,0.9961 -0.9961,0.9961 -0.99609,0 -0.99609,-0.9961 v -13.16406 q 0,-0.99609 0.99609,-0.99609 0.9961,0 0.9961,0.99609 z m -1.99219,-3.125 v -2.98828 q 0,-0.9961 0.99609,-0.9961 0.9961,0 0.9961,0.9961 v 2.98828 q 0,1.01562 -0.9961,1.01562 -0.99609,0 -0.99609,-1.01562 z"
         style="fill:url(#linearGradient1772);fill-opacity:1"
         id="path924"
         inkscape:connector-curvature="0" />
      <path
         d="m 357.02539,93.751495 q 0,-1.015625 -0.99609,-1.015625 -0.9961,0 -0.9961,1.015625 v 6.679685 0.3125 8.47656 0.11719 0.17578 16.23047 q 0,0.9961 0.9961,0.9961 0.99609,0 0.99609,-0.9961 v -15.39062 h 7.28516 q 0.99609,0 0.99609,-1.01563 0,-0.99609 -0.99609,-0.99609 h -7.28516 v -7.94922 q 0.11719,-2.285156 1.5625,-3.886719 1.5625,-1.757812 3.67188,-1.757812 2.08984,0 3.65234,1.757812 1.5625,1.71875 1.5625,4.238279 0,0.9961 0.99609,0.9961 0.9961,0 0.9961,-0.9961 0,-3.281248 -2.10938,-5.644529 -2.08984,-2.363281 -5.09765,-2.363281 -3.02735,0 -5.15625,2.363281 -0.0391,0.07813 -0.0781,0.117188 z"
         style="fill:url(#linearGradient1774);fill-opacity:1"
         id="path926"
         inkscape:connector-curvature="0" />
      <path
         d="m 387.49414,119.29837 q -0.0781,-0.91797 -1.01562,-0.91797 -1.11329,0 -0.9961,1.07422 0.11719,1.25 -2.07031,3.08594 -2.55859,2.16797 -5.72266,2.16797 -3.35937,0 -5.76172,-2.40235 -2.40234,-2.40234 -2.40234,-5.76172 0,-1.5625 0.48828,-2.96875 l 16.11328,0.0391 v -0.0391 q 0.3125,0 0.52735,-0.15625 l 0.0391,-0.0391 q 0.15625,-0.11719 0.23437,-0.29297 0.0781,-0.17578 0.0781,-0.46875 v -0.11719 q -0.0391,-0.3125 -0.15625,-0.5664 -2.32422,-6.23047 -9.12109,-6.23047 -4.19922,0 -7.20704,3.32031 -2.98828,3.28125 -2.98828,7.51953 0,4.19922 2.94922,7.20703 3.00781,2.94922 7.20703,2.94922 3.78907,0 6.99219,-2.63672 3.00781,-2.48046 2.8125,-4.76562 z m -3.00781,-7.75391 -13.4375,0.0391 q 0.39062,-0.60547 0.91797,-1.19141 2.48047,-2.69531 5.76172,-2.69531 3.16406,0 5,1.44531 1.03515,0.87891 1.75781,2.40234 z"
         style="fill:url(#linearGradient1776);fill-opacity:1"
         id="path928"
         inkscape:connector-curvature="0" />
      <path
         d="m 401.08789,112.57962 v 13.16406 q 0,0.9961 -0.99609,0.9961 -0.9961,0 -0.9961,-0.9961 v -13.16406 q 0,-0.99609 0.9961,-0.99609 0.99609,0 0.99609,0.99609 z m -1.99219,-3.125 v -2.98828 q 0,-0.9961 0.9961,-0.9961 0.99609,0 0.99609,0.9961 v 2.98828 q 0,1.01562 -0.99609,1.01562 -0.9961,0 -0.9961,-1.01562 z"
         style="fill:url(#linearGradient1778);fill-opacity:1"
         id="path930"
         inkscape:connector-curvature="0" />
      <path
         d="m 421.12695,111.31009 q 0,-1.52344 -1.95312,-2.77344 -2.16797,-1.30859 -5.41016,-1.30859 -3.24219,0 -5.39062,1.30859 -1.97266,1.25 -1.97266,2.77344 0,1.5039 1.97266,2.7539 2.14843,1.32813 5.39062,1.32813 3.96485,0 7.05078,1.46484 3.47657,1.64063 3.47657,4.23828 0,2.57813 -3.16407,4.19922 -2.87109,1.48438 -6.75781,1.48438 -3.92578,0 -6.79687,-1.48438 -3.16407,-1.58203 -3.16407,-4.19922 0,-0.99609 0.9961,-0.99609 0.99609,0 0.99609,0.99609 0,1.32813 2.08984,2.44141 2.36329,1.25 5.87891,1.25 3.51563,0 5.83984,-1.25 2.07032,-1.11328 2.07032,-2.44141 0,-1.26953 -2.30469,-2.42187 -2.61719,-1.28906 -6.25,-1.28906 -3.63281,0 -6.40625,-1.64063 -2.91016,-1.75781 -2.91016,-4.43359 0,-2.69531 2.91016,-4.45313 2.77344,-1.64062 6.44531,-1.64062 3.73047,0 6.44531,1.64062 2.91016,1.75782 2.91016,4.45313 0,0.99609 -0.99609,0.99609 -0.9961,0 -0.9961,-0.99609 z"
         style="fill:url(#linearGradient1780);fill-opacity:1"
         id="path932"
         inkscape:connector-curvature="0" />
      <path
         d="m 445.9707,105.66556 q -4.23828,0 -7.20703,3.125 -0.54687,0.54687 -0.95703,1.15234 v -3.28125 q 0,-0.95703 -0.99609,-0.95703 -0.9961,0 -0.9961,0.95703 v 29.6875 q 0,0.99609 0.9961,0.99609 0.99609,0 0.99609,-0.99609 v -13.73047 q 0.44922,0.56641 0.95703,1.13281 2.96875,3.10547 7.20703,3.10547 4.23828,0 7.20703,-3.10547 2.94922,-3.125 2.94922,-7.48046 0,-4.375 -2.94922,-7.48047 -2.96875,-3.125 -7.20703,-3.125 z m 0,1.99218 q 3.35938,0 5.76172,2.51954 2.40235,2.51953 2.40235,6.09375 0,3.55468 -2.40235,6.07421 -2.40234,2.48047 -5.76172,2.48047 -3.35937,0 -5.76172,-2.48047 -2.40234,-2.51953 -2.40234,-6.07421 v -0.3711 q 0.11719,-3.32031 2.40234,-5.72265 2.40235,-2.51954 5.76172,-2.51954 z"
         style="fill:url(#linearGradient1782);fill-opacity:1"
         id="path934"
         inkscape:connector-curvature="0" />
      <path
         d="m 479.56445,106.58353 q 0,-0.9961 -0.99609,-0.9961 -0.99609,0 -0.99609,0.9961 v 9.92187 q -0.11719,3.35938 -2.40235,5.76172 -2.40234,2.48047 -5.76172,2.48047 -3.35937,0 -5.76172,-2.48047 -2.40234,-2.51953 -2.40234,-6.13281 v -0.11719 -9.43359 q 0,-0.9961 -0.99609,-0.9961 -0.9961,0 -0.9961,0.9961 v 10.60546 h 0.0391 q 0.3125,3.75 2.91015,6.48438 2.96875,3.06641 7.20703,3.06641 4.23828,0 7.20703,-3.06641 0.50782,-0.56641 0.95704,-1.17188 v 3.24219 q 0,0.9961 0.99609,0.9961 0.99609,0 0.99609,-0.9961 z"
         style="fill:url(#linearGradient1784);fill-opacity:1"
         id="path936"
         inkscape:connector-curvature="0" />
      <path
         d="m 499.64258,111.31009 q 0,-1.52344 -1.95313,-2.77344 -2.16797,-1.30859 -5.41015,-1.30859 -3.24219,0 -5.39063,1.30859 -1.97265,1.25 -1.97265,2.77344 0,1.5039 1.97265,2.7539 2.14844,1.32813 5.39063,1.32813 3.96484,0 7.05078,1.46484 3.47656,1.64063 3.47656,4.23828 0,2.57813 -3.16406,4.19922 -2.8711,1.48438 -6.75781,1.48438 -3.92579,0 -6.79688,-1.48438 -3.16406,-1.58203 -3.16406,-4.19922 0,-0.99609 0.99609,-0.99609 0.9961,0 0.9961,0.99609 0,1.32813 2.08984,2.44141 2.36328,1.25 5.87891,1.25 3.51562,0 5.83984,-1.25 2.07031,-1.11328 2.07031,-2.44141 0,-1.26953 -2.30469,-2.42187 -2.61718,-1.28906 -6.25,-1.28906 -3.63281,0 -6.40625,-1.64063 -2.91015,-1.75781 -2.91015,-4.43359 0,-2.69531 2.91015,-4.45313 2.77344,-1.64062 6.44532,-1.64062 3.73047,0 6.44531,1.64062 2.91016,1.75782 2.91016,4.45313 0,0.99609 -0.9961,0.99609 -0.99609,0 -0.99609,-0.99609 z"
         style="fill:url(#linearGradient1786);fill-opacity:1"
         id="path938"
         inkscape:connector-curvature="0" />
      <path
         d="m 507.49414,93.751495 q 0,-1.015625 -0.99609,-1.015625 -0.9961,0 -0.9961,1.015625 v 31.992185 q 0,0.9961 0.9961,0.9961 0.99609,0 0.99609,-0.9961 v -9.96094 q 0.11719,-3.32031 2.40234,-5.68359 2.40235,-2.51953 5.76172,-2.51953 3.35938,0 5.76172,2.51953 2.36328,2.44141 2.40235,5.91797 v 0.11719 9.60937 q 0,0.9961 0.99609,0.9961 0.99609,0 0.99609,-0.9961 v -9.43359 -0.17578 -0.11719 q -0.0391,-4.27734 -2.94922,-7.30469 -2.96875,-3.125 -7.20703,-3.125 -4.23828,0 -7.20703,3.125 -0.50781,0.54688 -0.95703,1.11328 z"
         style="fill:url(#linearGradient1788);fill-opacity:1"
         id="path940"
         inkscape:connector-curvature="0" />
      <path
         d="m 531.00977,112.57962 v 13.16406 q 0,0.9961 -0.9961,0.9961 -0.99609,0 -0.99609,-0.9961 v -13.16406 q 0,-0.99609 0.99609,-0.99609 0.9961,0 0.9961,0.99609 z m -1.99219,-3.125 v -2.98828 q 0,-0.9961 0.99609,-0.9961 0.9961,0 0.9961,0.9961 v 2.98828 q 0,1.01562 -0.9961,1.01562 -0.99609,0 -0.99609,-1.01562 z"
         style="fill:url(#linearGradient1790);fill-opacity:1"
         id="path942"
         inkscape:connector-curvature="0" />
      <path
         d="m 548.72461,113.71243 q -0.0391,-3.20312 -2.10938,-5.52734 -2.1289,-2.36328 -5.13671,-2.36328 -3.02735,0 -5.15625,2.36328 -0.0391,0.0781 -0.0781,0.11719 v -1.52344 q 0,-0.9961 -0.99609,-0.9961 -0.9961,0 -0.9961,0.9961 v 18.96484 q 0,0.9961 0.9961,0.9961 0.99609,0 0.99609,-0.9961 v -12.28515 q 0.11719,-2.26563 1.5625,-3.86719 1.5625,-1.77735 3.67188,-1.77735 2.1289,0 3.6914,1.77735 1.48438,1.67969 1.52344,4.23828 v 11.91406 q 0,0.9961 0.99609,0.9961 0.9961,0 0.9961,-0.9961 z"
         style="fill:url(#linearGradient1792);fill-opacity:1"
         id="path944"
         inkscape:connector-curvature="0" />
      <path
         d="m 561.98633,105.58743 q -4.23828,0 -7.20703,3.10547 -2.94922,3.08594 -2.94922,7.44141 0,4.41406 2.94922,7.53906 2.96875,3.06641 7.20703,3.06641 4.23828,0 7.20703,-3.06641 0.50781,-0.56641 0.95703,-1.17188 v 3.20313 l -0.0781,3.24219 v 0.23437 0.23438 q -0.0781,2.36328 -1.5625,4.0039 -1.5625,1.75782 -3.65235,1.75782 -2.10937,0 -3.67187,-1.75782 -1.5625,-1.71875 -1.5625,-4.23828 0,-0.99609 -0.9961,-0.99609 -0.99609,0 -0.99609,0.99609 0,3.28125 2.07031,5.64453 2.12891,2.36328 5.15625,2.36328 3.00781,0 5.09766,-2.36328 2.07031,-2.32422 2.10937,-5.52734 v -0.0781 l 0.0781,-3.32031 v -0.11719 -0.23437 -18.96484 q 0,-0.9961 -0.9961,-0.9961 -0.99609,0 -0.99609,0.9961 v 2.1289 h -0.0391 v 1.07422 q -0.44922,-0.56641 -0.91797,-1.07422 -2.96875,-3.125 -7.20703,-3.125 z m 0,1.99219 q 3.35937,0 5.76172,2.51953 2.07031,2.16797 2.36328,5.15625 v 1.77734 q -0.29297,3.02735 -2.36328,5.23438 -2.40235,2.48047 -5.76172,2.48047 -3.35938,0 -5.76172,-2.48047 -2.40234,-2.51953 -2.40234,-6.13281 0,-3.55469 2.40234,-6.03516 2.40234,-2.51953 5.76172,-2.51953 z"
         style="fill:url(#linearGradient1794);fill-opacity:1"
         id="path946"
         inkscape:connector-curvature="0" />
    </g>
    <path
       style="fill:none;stroke:#000000;stroke-width:1.62077343px;stroke-linecap:butt;stroke-linejoin:miter;stroke-opacity:1"
       d="m 163.99984,-477.65109 c -27.21461,30.29825 -45.76241,41.9189 -47.15051,57.02497"
       id="path951"
       inkscape:connector-curvature="0"
       sodipodi:nodetypes="cc" />
    <path
       style="fill:none;stroke:#000000;stroke-width:1.62077343px;stroke-linecap:butt;stroke-linejoin:miter;stroke-opacity:1"
       d="m 163.99984,-477.65109 c 15.05356,21.3687 -11.00137,36.00167 6.66802,55.84065"
       id="path951-7"
       inkscape:connector-curvature="0"
       sodipodi:nodetypes="cc" />
    <path
       style="fill:none;stroke:#000000;stroke-width:1.62077343px;stroke-linecap:butt;stroke-linejoin:miter;stroke-opacity:1"
       d="m 191.08657,-510.18524 c -8.30744,15.0149 -12.18895,7.13238 -27.08673,32.53415"
       id="path951-7-8"
       inkscape:connector-curvature="0"
       sodipodi:nodetypes="cc" />
    <path
       style="fill:none;stroke:#000000;stroke-width:1.62077343px;stroke-linecap:butt;stroke-linejoin:miter;stroke-opacity:1"
       d="m 191.08657,-510.18524 c 21.42086,15.58019 13.68044,33.91385 26.48928,21.77581"
       id="path951-7-9"
       inkscape:connector-curvature="0"
       sodipodi:nodetypes="cc" />
    <path
       style="fill:none;stroke:#000000;stroke-width:1.62077343px;stroke-linecap:butt;stroke-linejoin:miter;stroke-opacity:1"
       d="m 191.08657,-510.18524 c 1.36164,39.20082 16.64413,4.66534 26.74606,3.01292"
       id="path951-7-9-7"
       inkscape:connector-curvature="0"
       sodipodi:nodetypes="cc" />
    <path
       style="opacity:1;fill:none;fill-opacity:1;fill-rule:nonzero;stroke:#383838;stroke-width:1.54435563;stroke-linecap:round;stroke-linejoin:miter;stroke-miterlimit:4;stroke-dasharray:none;stroke-dashoffset:0;stroke-opacity:1;paint-order:markers fill stroke"
       id="path1044"
       sodipodi:type="arc"
       sodipodi:cx="194.90549"
       sodipodi:cy="-517.06482"
       sodipodi:rx="6.9317894"
       sodipodi:ry="6.9317894"
       sodipodi:start="5.7614017"
       sodipodi:end="5.7595865"
       sodipodi:open="true"
       d="m 200.91487,-520.51981 a 6.9317894,6.9317894 0 0 1 -2.55166,9.46281 6.9317894,6.9317894 0 0 1 -9.46397,-2.54737 6.9317894,6.9317894 0 0 1 2.54308,-9.46513 6.9317894,6.9317894 0 0 1 9.46627,2.53879" />
    <path
       style="fill:none;stroke:#000000;stroke-width:1.62077343px;stroke-linecap:butt;stroke-linejoin:miter;stroke-opacity:1"
       d="m 1805.2364,-251.44344 c -27.2147,30.29823 -22.3191,40.76118 -11.262,42.26433"
       id="path951-4"
       inkscape:connector-curvature="0"
       sodipodi:nodetypes="cc" />
    <path
       style="fill:none;stroke:#000000;stroke-width:1.62077343px;stroke-linecap:butt;stroke-linejoin:miter;stroke-opacity:1"
       d="m 1805.2364,-251.44344 c 15.0536,21.36871 31.8333,19.79391 15.6402,50.63101"
       id="path951-7-7"
       inkscape:connector-curvature="0"
       sodipodi:nodetypes="cc" />
    <path
       style="fill:none;stroke:#000000;stroke-width:1.62077343px;stroke-linecap:butt;stroke-linejoin:miter;stroke-opacity:1"
       d="m 1802.5124,-293.23916 c -8.3074,15.01486 6.0448,23.05066 2.724,41.79572"
       id="path951-7-8-7"
       inkscape:connector-curvature="0"
       sodipodi:nodetypes="cc" />
    <path
       style="fill:none;stroke:#000000;stroke-width:1.62077343px;stroke-linecap:butt;stroke-linejoin:miter;stroke-opacity:1"
       d="m 1802.5124,-293.23916 c -46.1039,-8.84352 -13.4559,-50.32518 -3.3539,-51.97764"
       id="path951-7-9-7-8"
       inkscape:connector-curvature="0"
       sodipodi:nodetypes="cc" />
    <path
       style="opacity:1;fill:none;fill-opacity:1;fill-rule:nonzero;stroke:#383838;stroke-width:1.54435563;stroke-linecap:round;stroke-linejoin:miter;stroke-miterlimit:4;stroke-dasharray:none;stroke-dashoffset:0;stroke-opacity:1;paint-order:markers fill stroke"
       id="path1044-2"
       sodipodi:type="arc"
       sodipodi:cx="1804.3055"
       sodipodi:cy="-299.82935"
       sodipodi:rx="6.9317904"
       sodipodi:ry="6.9317904"
       sodipodi:start="5.7614017"
       sodipodi:end="5.7595865"
       sodipodi:open="true"
       d="m 1810.3149,-303.28434 a 6.9317904,6.9317904 0 0 1 -2.5516,9.46281 6.9317904,6.9317904 0 0 1 -9.464,-2.54737 6.9317904,6.9317904 0 0 1 2.5431,-9.46512 6.9317904,6.9317904 0 0 1 9.4662,2.53878" />
  </g>
</svg>
