<?xml version="1.0" encoding="UTF-8" standalone="no"?>
<!-- Created with Inkscape (http://www.inkscape.org/) -->

<svg
   xmlns:dc="http://purl.org/dc/elements/1.1/"
   xmlns:cc="http://creativecommons.org/ns#"
   xmlns:rdf="http://www.w3.org/1999/02/22-rdf-syntax-ns#"
   xmlns:svg="http://www.w3.org/2000/svg"
   xmlns="http://www.w3.org/2000/svg"
   xmlns:xlink="http://www.w3.org/1999/xlink"
   xmlns:sodipodi="http://sodipodi.sourceforge.net/DTD/sodipodi-0.dtd"
   xmlns:inkscape="http://www.inkscape.org/namespaces/inkscape"
   width="1920mm"
   height="1080mm"
   viewBox="0 0 1920 1080"
   version="1.1"
   id="svg1358"
   inkscape:version="0.92.2 2405546, 2018-03-11"
   sodipodi:docname="lose.svg">
  <defs
     id="defs1352">
    <linearGradient
       id="linearGradient1041"
       inkscape:collect="always">
      <stop
         id="stop1037"
         offset="0"
         style="stop-color:#191011;stop-opacity:1" />
      <stop
         id="stop1039"
         offset="1"
         style="stop-color:#fdfdfd;stop-opacity:1" />
    </linearGradient>
    <linearGradient
       inkscape:collect="always"
       id="linearGradient923">
      <stop
         style="stop-color:#fff6f7;stop-opacity:1"
         offset="0"
         id="stop919" />
      <stop
         style="stop-color:#bdbdbd;stop-opacity:1"
         offset="1"
         id="stop921" />
    </linearGradient>
    <radialGradient
       inkscape:collect="always"
       xlink:href="#linearGradient923"
       id="radialGradient925"
       cx="2419.3313"
       cy="1415.266"
       fx="2419.3313"
       fy="1415.266"
       r="441.61425"
       gradientTransform="matrix(0.80291907,-0.25069595,0.60536568,1.9388412,-2078.0129,-2613.4113)"
       gradientUnits="userSpaceOnUse" />
    <radialGradient
       inkscape:collect="always"
       xlink:href="#linearGradient1041"
       id="radialGradient925-3"
       cx="2419.3313"
       cy="1415.266"
       fx="2419.3313"
       fy="1415.266"
       r="441.61426"
       gradientTransform="matrix(0.9470287,0.22330967,-0.28950483,1.2277542,-698.59475,-2769.8887)"
       gradientUnits="userSpaceOnUse" />
  </defs>
  <sodipodi:namedview
     id="base"
     pagecolor="#ffffff"
     bordercolor="#666666"
     borderopacity="1.0"
     inkscape:pageopacity="0.0"
     inkscape:pageshadow="2"
     inkscape:zoom="0.1767767"
     inkscape:cx="3826.8653"
     inkscape:cy="2062.79"
     inkscape:document-units="mm"
     inkscape:current-layer="layer1"
     showgrid="false"
     inkscape:window-width="1920"
     inkscape:window-height="1007"
     inkscape:window-x="0"
     inkscape:window-y="0"
     inkscape:window-maximized="1" />
  <metadata
     id="metadata1355">
    <rdf:RDF>
      <cc:Work
         rdf:about="">
        <dc:format>image/svg+xml</dc:format>
        <dc:type
           rdf:resource="http://purl.org/dc/dcmitype/StillImage" />
        <dc:title />
      </cc:Work>
    </rdf:RDF>
  </metadata>
  <g
     inkscape:label="Layer 1"
     inkscape:groupmode="layer"
     id="layer1"
     transform="translate(0,783)">
    <g
       aria-label="Press any key to start another one."
       transform="matrix(2.6711524,0,0,2.6711524,-4298.9576,-6669.1769)"
       style="font-style:normal;font-variant:normal;font-weight:normal;font-stretch:normal;font-size:40px;line-height:1.25;font-family:Balker;-inkscape-font-specification:'Balker, Normal';font-variant-ligatures:normal;font-variant-caps:normal;font-variant-numeric:normal;font-feature-settings:normal;text-align:start;letter-spacing:0px;word-spacing:0px;writing-mode:lr-tb;text-anchor:start;fill:#000000;fill-opacity:1;stroke:none"
       id="flowRoot1104-8">
      <path
         d="m 1648.9961,2484.4956 q 0,-1.0156 -0.9961,-1.0156 -0.9961,0 -0.9961,1.0156 v 8.8282 0.4101 22.7539 q 0,0.9961 0.9961,0.9961 0.9961,0 0.9961,-0.9961 v -16.875 q 0.2344,0.3516 0.5273,0.6836 2.5586,2.8711 6.2305,2.8711 3.6914,0 6.2109,-2.8711 2.5586,-2.9297 2.5586,-6.9726 0,-4.043 -2.5586,-6.9141 -2.5195,-2.9297 -6.2109,-2.9297 -3.6719,0 -6.2305,2.9297 -0.2929,0.3125 -0.5273,0.6445 z m 6.7578,0.9961 q 2.7734,0 4.7656,2.2852 1.9922,2.2656 1.9922,5.5469 0,3.2812 -1.9922,5.5664 -1.9922,2.2851 -4.7656,2.2851 -2.7539,0 -4.7461,-2.2851 -2.0117,-2.2852 -2.0117,-5.5664 v -0.3125 q 0.078,-3.086 2.0117,-5.2344 1.9922,-2.2852 4.7461,-2.2852 z"
         style=""
         id="path1203" />
      <path
         d="m 1668.3711,2496.9761 q 0,-1.0156 -0.9961,-1.0156 -0.9961,0 -0.9961,1.0156 v 19.5117 q 0,0.9961 0.9961,0.9961 0.9961,0 0.9961,-0.9961 v -12.832 q 0.1172,-2.2852 1.5625,-3.8867 1.5625,-1.7578 3.6719,-1.7578 2.0898,0 3.6523,1.7578 1.5625,1.7187 1.5625,4.2383 0,0.996 0.9961,0.996 0.9961,0 0.9961,-0.996 0,-3.2813 -2.1094,-5.6446 -2.0898,-2.3633 -5.0976,-2.3633 -3.0274,0 -5.1563,2.3633 -0.039,0.078 -0.078,0.1172 z"
         style=""
         id="path1205" />
      <path
         d="m 1702.4336,2510.0425 q -0.078,-0.918 -1.0156,-0.918 -1.1133,0 -0.9961,1.0743 0.1172,1.25 -2.0703,3.0859 -2.5586,2.168 -5.7227,2.168 -3.3594,0 -5.7617,-2.4024 -2.4024,-2.4023 -2.4024,-5.7617 0,-1.5625 0.4883,-2.9687 l 16.1133,0.039 v -0.039 q 0.3125,0 0.5274,-0.1563 l 0.039,-0.039 q 0.1563,-0.1171 0.2344,-0.2929 0.078,-0.1758 0.078,-0.4688 v -0.1172 q -0.039,-0.3125 -0.1562,-0.5664 -2.3243,-6.2304 -9.1211,-6.2304 -4.1992,0 -7.2071,3.3203 -2.9882,3.2812 -2.9882,7.5195 0,4.1992 2.9492,7.207 3.0078,2.9493 7.207,2.9493 3.7891,0 6.9922,-2.6368 3.0078,-2.4804 2.8125,-4.7656 z m -3.0078,-7.7539 -13.4375,0.039 q 0.3906,-0.6055 0.918,-1.1914 2.4804,-2.6954 5.7617,-2.6954 3.164,0 5,1.4454 1.0351,0.8789 1.7578,2.4023 z"
         style=""
         id="path1207" />
      <path
         d="m 1722.0039,2502.0542 q 0,-1.5234 -1.9531,-2.7734 -2.168,-1.3086 -5.4102,-1.3086 -3.2422,0 -5.3906,1.3086 -1.9727,1.25 -1.9727,2.7734 0,1.5039 1.9727,2.7539 2.1484,1.3282 5.3906,1.3282 3.9649,0 7.0508,1.4648 3.4766,1.6406 3.4766,4.2383 0,2.5781 -3.1641,4.1992 -2.8711,1.4844 -6.7578,1.4844 -3.9258,0 -6.7969,-1.4844 -3.164,-1.582 -3.164,-4.1992 0,-0.9961 0.9961,-0.9961 0.996,0 0.996,0.9961 0,1.3281 2.0899,2.4414 2.3633,1.25 5.8789,1.25 3.5156,0 5.8398,-1.25 2.0704,-1.1133 2.0704,-2.4414 0,-1.2695 -2.3047,-2.4219 -2.6172,-1.2891 -6.25,-1.2891 -3.6328,0 -6.4063,-1.6406 -2.9101,-1.7578 -2.9101,-4.4336 0,-2.6953 2.9101,-4.4531 2.7735,-1.6406 6.4453,-1.6406 3.7305,0 6.4453,1.6406 2.9102,1.7578 2.9102,4.4531 0,0.9961 -0.9961,0.9961 -0.9961,0 -0.9961,-0.9961 z"
         style=""
         id="path1209" />
      <path
         d="m 1744.6602,2502.0542 q 0,-1.5234 -1.9532,-2.7734 -2.1679,-1.3086 -5.4101,-1.3086 -3.2422,0 -5.3906,1.3086 -1.9727,1.25 -1.9727,2.7734 0,1.5039 1.9727,2.7539 2.1484,1.3282 5.3906,1.3282 3.9648,0 7.0508,1.4648 3.4765,1.6406 3.4765,4.2383 0,2.5781 -3.164,4.1992 -2.8711,1.4844 -6.7579,1.4844 -3.9257,0 -6.7968,-1.4844 -3.1641,-1.582 -3.1641,-4.1992 0,-0.9961 0.9961,-0.9961 0.9961,0 0.9961,0.9961 0,1.3281 2.0898,2.4414 2.3633,1.25 5.8789,1.25 3.5157,0 5.8399,-1.25 2.0703,-1.1133 2.0703,-2.4414 0,-1.2695 -2.3047,-2.4219 -2.6172,-1.2891 -6.25,-1.2891 -3.6328,0 -6.4062,-1.6406 -2.9102,-1.7578 -2.9102,-4.4336 0,-2.6953 2.9102,-4.4531 2.7734,-1.6406 6.4453,-1.6406 3.7304,0 6.4453,1.6406 2.9101,1.7578 2.9101,4.4531 0,0.9961 -0.996,0.9961 -0.9961,0 -0.9961,-0.9961 z"
         style=""
         id="path1211" />
      <path
         d="m 1769.5039,2496.3316 q -4.2383,0 -7.207,3.1054 -2.9492,3.086 -2.9492,7.4414 0,4.4141 2.9492,7.5391 2.9687,3.0664 7.207,3.0664 4.2383,0 7.207,-3.0664 0.4688,-0.5273 0.918,-1.0937 v 0.7226 h 0.039 v 2.4414 q 0,0.9961 0.9961,0.9961 0.9961,0 0.9961,-0.9961 v -2.4414 h 0.039 v -14.7265 h -0.039 v -1.9922 q 0,-0.9961 -0.9961,-0.9961 -0.9961,0 -0.9961,0.9961 v 1.9922 h -0.039 v 1.2109 q -0.4492,-0.5664 -0.918,-1.0742 -2.9687,-3.125 -7.207,-3.125 z m 0,1.9922 q 3.3594,0 5.7617,2.5195 2.0703,2.207 2.3633,5.1953 v 1.7383 q -0.293,3.0273 -2.3633,5.2344 -2.4023,2.4804 -5.7617,2.4804 -3.3594,0 -5.7617,-2.4804 -2.4024,-2.5196 -2.4024,-6.1329 0,-3.5546 2.4024,-6.0351 2.4023,-2.5195 5.7617,-2.5195 z"
         style=""
         id="path1213" />
      <path
         d="m 1797.4141,2504.4566 q -0.039,-3.2032 -2.1094,-5.5274 -2.1289,-2.3633 -5.1367,-2.3633 -3.0274,0 -5.1563,2.3633 -0.039,0.078 -0.078,0.1172 v -1.5234 q 0,-0.9961 -0.9961,-0.9961 -0.9961,0 -0.9961,0.9961 v 18.9648 q 0,0.9961 0.9961,0.9961 0.9961,0 0.9961,-0.9961 v -12.2851 q 0.1172,-2.2657 1.5625,-3.8672 1.5625,-1.7774 3.6719,-1.7774 2.1289,0 3.6914,1.7774 1.4844,1.6797 1.5234,4.2383 v 11.914 q 0,0.9961 0.9961,0.9961 0.9961,0 0.9961,-0.9961 z"
         style=""
         id="path1215" />
      <path
         d="m 1808.3125,2519.9253 q 0,-0.9961 -0.9961,-0.9961 -0.9961,0 -0.9961,0.9961 0,3.2813 2.0703,5.6446 2.1289,2.3632 5.1563,2.3632 3.0078,0 5.0976,-2.3632 2.0703,-2.3243 2.1875,-5.6055 v -22.6367 q 0,-0.9961 -0.9961,-0.9961 -0.9961,0 -0.9961,0.9961 v 9.9218 q -0.1171,3.3594 -2.4023,5.7618 -2.4023,2.4804 -5.7617,2.4804 -3.3594,0 -5.7617,-2.4804 -2.4024,-2.5196 -2.4024,-6.1329 v -0.1171 -9.7852 q 0,-1.0156 -0.9961,-1.0156 -0.9961,0 -0.9961,1.0156 v 9.9023 q 0,4.4141 2.9493,7.5391 2.9687,3.0664 7.207,3.0664 4.2383,0 7.207,-3.0664 0.5078,-0.5664 0.957,-1.1719 v 3.2032 l -0.078,3.7109 q -0.078,2.3633 -1.5625,4.0039 -1.5625,1.7578 -3.6523,1.7578 -2.1094,0 -3.6719,-1.7578 -1.5625,-1.7187 -1.5625,-4.2383 z"
         style=""
         id="path1217" />
      <path
         d="m 1834.8555,2484.4956 q 0,-1.0156 -0.9961,-1.0156 -0.9961,0 -0.9961,1.0156 v 31.9922 q 0,0.9961 0.9961,0.9961 0.9961,0 0.9961,-0.9961 v -9.3945 l 3.3203,-2.168 10.2344,12.2071 q 0.332,0.3515 0.7617,0.3515 1.0156,0 1.0156,-0.9961 0,-0.3515 -0.2539,-0.6445 l -10.0781,-11.9922 8.2422,-5.3711 q 0.4492,-0.3125 0.4492,-0.8008 0,-1.0351 -1.0156,-1.0351 -0.2735,0 -0.5469,0.1562 l -12.1289,7.8906 z"
         style=""
         id="path1219" />
      <path
         d="m 1869.7773,2510.0425 q -0.078,-0.918 -1.0156,-0.918 -1.1133,0 -0.9961,1.0743 0.1172,1.25 -2.0703,3.0859 -2.5586,2.168 -5.7226,2.168 -3.3594,0 -5.7618,-2.4024 -2.4023,-2.4023 -2.4023,-5.7617 0,-1.5625 0.4883,-2.9687 l 16.1133,0.039 v -0.039 q 0.3125,0 0.5273,-0.1563 l 0.039,-0.039 q 0.1562,-0.1171 0.2343,-0.2929 0.078,-0.1758 0.078,-0.4688 v -0.1172 q -0.039,-0.3125 -0.1563,-0.5664 -2.3242,-6.2304 -9.1211,-6.2304 -4.1992,0 -7.207,3.3203 -2.9883,3.2812 -2.9883,7.5195 0,4.1992 2.9492,7.207 3.0078,2.9493 7.2071,2.9493 3.789,0 6.9921,-2.6368 3.0079,-2.4804 2.8125,-4.7656 z m -3.0078,-7.7539 -13.4375,0.039 q 0.3907,-0.6055 0.918,-1.1914 2.4805,-2.6954 5.7617,-2.6954 3.1641,0 5,1.4454 1.0352,0.8789 1.7578,2.4023 z"
         style=""
         id="path1221" />
      <path
         d="m 1880.3438,2519.9253 q 0,-0.9961 -0.9961,-0.9961 -0.9961,0 -0.9961,0.9961 0,3.2813 2.0703,5.6446 2.1289,2.3632 5.1562,2.3632 3.0078,0 5.0977,-2.3632 2.0703,-2.3243 2.1875,-5.6055 v -22.6367 q 0,-0.9961 -0.9961,-0.9961 -0.9961,0 -0.9961,0.9961 v 9.9218 q -0.1172,3.3594 -2.4023,5.7618 -2.4024,2.4804 -5.7618,2.4804 -3.3593,0 -5.7617,-2.4804 -2.4023,-2.5196 -2.4023,-6.1329 v -0.1171 -9.7852 q 0,-1.0156 -0.9961,-1.0156 -0.9961,0 -0.9961,1.0156 v 9.9023 q 0,4.4141 2.9492,7.5391 2.9688,3.0664 7.207,3.0664 4.2383,0 7.2071,-3.0664 0.5078,-0.5664 0.957,-1.1719 v 3.2032 l -0.078,3.7109 q -0.078,2.3633 -1.5625,4.0039 -1.5625,1.7578 -3.6524,1.7578 -2.1093,0 -3.6718,-1.7578 -1.5625,-1.7187 -1.5625,-4.2383 z"
         style=""
         id="path1223" />
      <path
         d="m 1913.3711,2498.0503 0.039,18.4375 q 0,0.9961 0.9961,0.9961 0.996,0 0.996,-0.9961 l 0.039,-18.3984 7.9297,-0.039 q 0.9961,0 0.9961,-0.9961 0,-1.0156 -0.9961,-1.0156 l -7.9297,-0.039 -0.039,-5.1953 q 0,-0.9961 -0.996,-0.9961 -0.9961,0 -0.9961,0.9961 l -0.039,5.1953 -7.4805,0.039 q -0.9961,0 -0.9961,1.0156 0,0.9961 0.9961,0.9961 l 7.4805,0.039 z"
         style=""
         id="path1225" />
      <path
         d="m 1936.1445,2496.3316 q 4.2383,0 7.1875,3.1054 2.9688,3.086 2.9688,7.4414 0,4.4141 -2.9688,7.5196 -2.9492,3.0859 -7.1875,3.0859 -4.2382,0 -7.207,-3.0859 -2.9492,-3.1055 -2.9492,-7.5196 0,-4.3554 2.9492,-7.4414 2.9688,-3.1054 7.207,-3.1054 z m 0,1.9922 q -3.3593,0 -5.7617,2.5 -2.4023,2.5 -2.4023,6.0546 0,3.6133 2.4023,6.1133 2.4024,2.5 5.7617,2.5 3.3594,0 5.7618,-2.5 2.4023,-2.5 2.4023,-6.1133 0,-3.5546 -2.4023,-6.0546 -2.4024,-2.5 -5.7618,-2.5 z"
         style=""
         id="path1227" />
      <path
         d="m 1975.0508,2502.0542 q 0,-1.5234 -1.9531,-2.7734 -2.168,-1.3086 -5.4102,-1.3086 -3.2422,0 -5.3906,1.3086 -1.9727,1.25 -1.9727,2.7734 0,1.5039 1.9727,2.7539 2.1484,1.3282 5.3906,1.3282 3.9648,0 7.0508,1.4648 3.4765,1.6406 3.4765,4.2383 0,2.5781 -3.164,4.1992 -2.8711,1.4844 -6.7578,1.4844 -3.9258,0 -6.7969,-1.4844 -3.1641,-1.582 -3.1641,-4.1992 0,-0.9961 0.9961,-0.9961 0.9961,0 0.9961,0.9961 0,1.3281 2.0899,2.4414 2.3632,1.25 5.8789,1.25 3.5156,0 5.8398,-1.25 2.0703,-1.1133 2.0703,-2.4414 0,-1.2695 -2.3047,-2.4219 -2.6171,-1.2891 -6.25,-1.2891 -3.6328,0 -6.4062,-1.6406 -2.9102,-1.7578 -2.9102,-4.4336 0,-2.6953 2.9102,-4.4531 2.7734,-1.6406 6.4453,-1.6406 3.7305,0 6.4453,1.6406 2.9102,1.7578 2.9102,4.4531 0,0.9961 -0.9961,0.9961 -0.9961,0 -0.9961,-0.9961 z"
         style=""
         id="path1229" />
      <path
         d="m 1987.3555,2498.0503 0.039,18.4375 q 0,0.9961 0.9961,0.9961 0.9961,0 0.9961,-0.9961 l 0.039,-18.3984 7.9297,-0.039 q 0.9961,0 0.9961,-0.9961 0,-1.0156 -0.9961,-1.0156 l -7.9297,-0.039 -0.039,-5.1953 q 0,-0.9961 -0.9961,-0.9961 -0.9961,0 -0.9961,0.9961 l -0.039,5.1953 -7.4805,0.039 q -0.9961,0 -0.9961,1.0156 0,0.9961 0.9961,0.9961 l 7.4805,0.039 z"
         style=""
         id="path1231" />
      <path
         d="m 2010.1289,2496.3316 q -4.2383,0 -7.207,3.1054 -2.9492,3.086 -2.9492,7.4414 0,4.4141 2.9492,7.5391 2.9687,3.0664 7.207,3.0664 4.2383,0 7.207,-3.0664 0.4688,-0.5273 0.918,-1.0937 v 0.7226 h 0.039 v 2.4414 q 0,0.9961 0.9961,0.9961 0.9961,0 0.9961,-0.9961 v -2.4414 h 0.039 v -14.7265 h -0.039 v -1.9922 q 0,-0.9961 -0.9961,-0.9961 -0.9961,0 -0.9961,0.9961 v 1.9922 h -0.039 v 1.2109 q -0.4492,-0.5664 -0.918,-1.0742 -2.9687,-3.125 -7.207,-3.125 z m 0,1.9922 q 3.3594,0 5.7617,2.5195 2.0703,2.207 2.3633,5.1953 v 1.7383 q -0.293,3.0273 -2.3633,5.2344 -2.4023,2.4804 -5.7617,2.4804 -3.3594,0 -5.7617,-2.4804 -2.4024,-2.5196 -2.4024,-6.1329 0,-3.5546 2.4024,-6.0351 2.4023,-2.5195 5.7617,-2.5195 z"
         style=""
         id="path1233" />
      <path
         d="m 2025.5586,2496.9761 q 0,-1.0156 -0.9961,-1.0156 -0.9961,0 -0.9961,1.0156 v 19.5117 q 0,0.9961 0.9961,0.9961 0.9961,0 0.9961,-0.9961 v -12.832 q 0.1172,-2.2852 1.5625,-3.8867 1.5625,-1.7578 3.6719,-1.7578 2.0898,0 3.6523,1.7578 1.5625,1.7187 1.5625,4.2383 0,0.996 0.9961,0.996 0.9961,0 0.9961,-0.996 0,-3.2813 -2.1094,-5.6446 -2.0898,-2.3633 -5.0976,-2.3633 -3.0274,0 -5.1563,2.3633 -0.039,0.078 -0.078,0.1172 z"
         style=""
         id="path1235" />
      <path
         d="m 2048.2148,2498.0503 0.039,18.4375 q 0,0.9961 0.9961,0.9961 0.9961,0 0.9961,-0.9961 l 0.039,-18.3984 7.9296,-0.039 q 0.9961,0 0.9961,-0.9961 0,-1.0156 -0.9961,-1.0156 l -7.9296,-0.039 -0.039,-5.1953 q 0,-0.9961 -0.9961,-0.9961 -0.9961,0 -0.9961,0.9961 l -0.039,5.1953 -7.4804,0.039 q -0.9961,0 -0.9961,1.0156 0,0.9961 0.9961,0.9961 l 7.4804,0.039 z"
         style=""
         id="path1237" />
      <path
         d="m 2079.8164,2496.3316 q -4.2383,0 -7.207,3.1054 -2.9492,3.086 -2.9492,7.4414 0,4.4141 2.9492,7.5391 2.9687,3.0664 7.207,3.0664 4.2383,0 7.207,-3.0664 0.4688,-0.5273 0.918,-1.0937 v 0.7226 h 0.039 v 2.4414 q 0,0.9961 0.9961,0.9961 0.9961,0 0.9961,-0.9961 v -2.4414 h 0.039 v -14.7265 h -0.039 v -1.9922 q 0,-0.9961 -0.9961,-0.9961 -0.9961,0 -0.9961,0.9961 v 1.9922 h -0.039 v 1.2109 q -0.4492,-0.5664 -0.918,-1.0742 -2.9687,-3.125 -7.207,-3.125 z m 0,1.9922 q 3.3594,0 5.7617,2.5195 2.0703,2.207 2.3633,5.1953 v 1.7383 q -0.293,3.0273 -2.3633,5.2344 -2.4023,2.4804 -5.7617,2.4804 -3.3594,0 -5.7617,-2.4804 -2.4024,-2.5196 -2.4024,-6.1329 0,-3.5546 2.4024,-6.0351 2.4023,-2.5195 5.7617,-2.5195 z"
         style=""
         id="path1239" />
      <path
         d="m 2107.7266,2504.4566 q -0.039,-3.2032 -2.1094,-5.5274 -2.1289,-2.3633 -5.1367,-2.3633 -3.0274,0 -5.1563,2.3633 -0.039,0.078 -0.078,0.1172 v -1.5234 q 0,-0.9961 -0.9961,-0.9961 -0.9961,0 -0.9961,0.9961 v 18.9648 q 0,0.9961 0.9961,0.9961 0.9961,0 0.9961,-0.9961 v -12.2851 q 0.1172,-2.2657 1.5625,-3.8672 1.5625,-1.7774 3.6719,-1.7774 2.1289,0 3.6914,1.7774 1.4844,1.6797 1.5234,4.2383 v 11.914 q 0,0.9961 0.9961,0.9961 0.9961,0 0.9961,-0.9961 z"
         style=""
         id="path1241" />
      <path
         d="m 2120.9883,2496.3316 q 4.2383,0 7.1875,3.1054 2.9687,3.086 2.9687,7.4414 0,4.4141 -2.9687,7.5196 -2.9492,3.0859 -7.1875,3.0859 -4.2383,0 -7.207,-3.0859 -2.9493,-3.1055 -2.9493,-7.5196 0,-4.3554 2.9493,-7.4414 2.9687,-3.1054 7.207,-3.1054 z m 0,1.9922 q -3.3594,0 -5.7617,2.5 -2.4024,2.5 -2.4024,6.0546 0,3.6133 2.4024,6.1133 2.4023,2.5 5.7617,2.5 3.3594,0 5.7617,-2.5 2.4023,-2.5 2.4023,-6.1133 0,-3.5546 -2.4023,-6.0546 -2.4023,-2.5 -5.7617,-2.5 z"
         style=""
         id="path1243" />
      <path
         d="m 2142.7461,2498.0503 0.039,18.4375 q 0,0.9961 0.9961,0.9961 0.996,0 0.996,-0.9961 l 0.039,-18.3984 7.9297,-0.039 q 0.9961,0 0.9961,-0.9961 0,-1.0156 -0.9961,-1.0156 l -7.9297,-0.039 -0.039,-5.1953 q 0,-0.9961 -0.996,-0.9961 -0.9961,0 -0.9961,0.9961 l -0.039,5.1953 -7.4805,0.039 q -0.9961,0 -0.9961,1.0156 0,0.9961 0.9961,0.9961 l 7.4805,0.039 z"
         style=""
         id="path1245" />
      <path
         d="m 2157.3555,2484.4956 q 0,-1.0156 -0.9961,-1.0156 -0.9961,0 -0.9961,1.0156 v 31.9922 q 0,0.9961 0.9961,0.9961 0.9961,0 0.9961,-0.9961 v -9.9609 q 0.1172,-3.3203 2.4023,-5.6836 2.4024,-2.5195 5.7617,-2.5195 3.3594,0 5.7618,2.5195 2.3632,2.4414 2.4023,5.918 v 0.1171 9.6094 q 0,0.9961 0.9961,0.9961 0.9961,0 0.9961,-0.9961 v -9.4336 -0.1758 -0.1171 q -0.039,-4.2774 -2.9492,-7.3047 -2.9688,-3.125 -7.2071,-3.125 -4.2382,0 -7.207,3.125 -0.5078,0.5468 -0.957,1.1133 z"
         style=""
         id="path1247" />
      <path
         d="m 2198.7617,2510.0425 q -0.078,-0.918 -1.0156,-0.918 -1.1133,0 -0.9961,1.0743 0.1172,1.25 -2.0703,3.0859 -2.5586,2.168 -5.7227,2.168 -3.3593,0 -5.7617,-2.4024 -2.4023,-2.4023 -2.4023,-5.7617 0,-1.5625 0.4883,-2.9687 l 16.1132,0.039 v -0.039 q 0.3125,0 0.5274,-0.1563 l 0.039,-0.039 q 0.1563,-0.1171 0.2344,-0.2929 0.078,-0.1758 0.078,-0.4688 v -0.1172 q -0.039,-0.3125 -0.1562,-0.5664 -2.3242,-6.2304 -9.1211,-6.2304 -4.1992,0 -7.207,3.3203 -2.9883,3.2812 -2.9883,7.5195 0,4.1992 2.9492,7.207 3.0078,2.9493 7.207,2.9493 3.7891,0 6.9922,-2.6368 3.0078,-2.4804 2.8125,-4.7656 z m -3.0078,-7.7539 -13.4375,0.039 q 0.3906,-0.6055 0.918,-1.1914 2.4804,-2.6954 5.7617,-2.6954 3.1641,0 5,1.4454 1.0352,0.8789 1.7578,2.4023 z"
         style=""
         id="path1249" />
      <path
         d="m 2203.5273,2496.9761 q 0,-1.0156 -0.996,-1.0156 -0.9961,0 -0.9961,1.0156 v 19.5117 q 0,0.9961 0.9961,0.9961 0.996,0 0.996,-0.9961 v -12.832 q 0.1172,-2.2852 1.5625,-3.8867 1.5625,-1.7578 3.6719,-1.7578 2.0899,0 3.6524,1.7578 1.5625,1.7187 1.5625,4.2383 0,0.996 0.9961,0.996 0.9961,0 0.9961,-0.996 0,-3.2813 -2.1094,-5.6446 -2.0899,-2.3633 -5.0977,-2.3633 -3.0273,0 -5.1562,2.3633 -0.039,0.078 -0.078,0.1172 z"
         style=""
         id="path1251" />
      <path
         d="m 2236.6914,2496.3316 q 4.2383,0 7.1875,3.1054 2.9688,3.086 2.9688,7.4414 0,4.4141 -2.9688,7.5196 -2.9492,3.0859 -7.1875,3.0859 -4.2383,0 -7.207,-3.0859 -2.9492,-3.1055 -2.9492,-7.5196 0,-4.3554 2.9492,-7.4414 2.9687,-3.1054 7.207,-3.1054 z m 0,1.9922 q -3.3594,0 -5.7617,2.5 -2.4024,2.5 -2.4024,6.0546 0,3.6133 2.4024,6.1133 2.4023,2.5 5.7617,2.5 3.3594,0 5.7617,-2.5 2.4024,-2.5 2.4024,-6.1133 0,-3.5546 -2.4024,-6.0546 -2.4023,-2.5 -5.7617,-2.5 z"
         style=""
         id="path1253" />
      <path
         d="m 2264.4453,2504.4566 q -0.039,-3.2032 -2.1094,-5.5274 -2.1289,-2.3633 -5.1367,-2.3633 -3.0273,0 -5.1562,2.3633 -0.039,0.078 -0.078,0.1172 v -1.5234 q 0,-0.9961 -0.996,-0.9961 -0.9961,0 -0.9961,0.9961 v 18.9648 q 0,0.9961 0.9961,0.9961 0.996,0 0.996,-0.9961 v -12.2851 q 0.1172,-2.2657 1.5625,-3.8672 1.5625,-1.7774 3.6719,-1.7774 2.1289,0 3.6914,1.7774 1.4844,1.6797 1.5235,4.2383 v 11.914 q 0,0.9961 0.9961,0.9961 0.9961,0 0.9961,-0.9961 z"
         style=""
         id="path1255" />
      <path
         d="m 2287.4336,2510.0425 q -0.078,-0.918 -1.0156,-0.918 -1.1133,0 -0.9961,1.0743 0.1172,1.25 -2.0703,3.0859 -2.5586,2.168 -5.7227,2.168 -3.3594,0 -5.7617,-2.4024 -2.4024,-2.4023 -2.4024,-5.7617 0,-1.5625 0.4883,-2.9687 l 16.1133,0.039 v -0.039 q 0.3125,0 0.5274,-0.1563 l 0.039,-0.039 q 0.1563,-0.1171 0.2344,-0.2929 0.078,-0.1758 0.078,-0.4688 v -0.1172 q -0.039,-0.3125 -0.1562,-0.5664 -2.3243,-6.2304 -9.1211,-6.2304 -4.1992,0 -7.2071,3.3203 -2.9882,3.2812 -2.9882,7.5195 0,4.1992 2.9492,7.207 3.0078,2.9493 7.207,2.9493 3.7891,0 6.9922,-2.6368 3.0078,-2.4804 2.8125,-4.7656 z m -3.0078,-7.7539 -13.4375,0.039 q 0.3906,-0.6055 0.918,-1.1914 2.4804,-2.6954 5.7617,-2.6954 3.164,0 5,1.4454 1.0351,0.8789 1.7578,2.4023 z"
         style=""
         id="path1257" />
      <path
         d="m 2292.9219,2512.3277 q 1.0742,0 1.8945,0.7422 0.8203,0.7421 0.8203,1.8164 0,1.1132 -0.8203,1.8554 -0.8203,0.7422 -1.8945,0.7422 -1.0742,0 -1.8946,-0.7422 -0.8203,-0.7422 -0.8203,-1.8554 0,-1.0743 0.8203,-1.8164 0.8204,-0.7422 1.8946,-0.7422 z m 0,1.9922 q -0.7227,0 -0.7227,0.5664 0,0.6054 0.7227,0.6054 0.7226,0 0.7226,-0.6054 0,-0.5664 -0.7226,-0.5664 z"
         style=""
         id="path1259" />
    </g>
    <path
       style="opacity:0.97000002;fill:#000000;fill-opacity:0.3960396;fill-rule:nonzero;stroke:#000000;stroke-width:0;stroke-linecap:round;stroke-linejoin:miter;stroke-miterlimit:4;stroke-dasharray:none;stroke-dashoffset:0;stroke-opacity:1;paint-order:markers fill stroke"
       d="m 518.85602,-616.99082 a 631.76012,204.6547 74.115761 0 0 54.4794,123.90247 631.76012,204.6547 74.115761 0 0 332.28844,146.82728 631.76012,204.6547 74.115761 0 0 -8.91173,-371.60136 512.52656,613.96411 74.115761 0 1 -377.85611,100.87161 z"
       id="path914-6"
       inkscape:connector-curvature="0" />
    <path
       style="opacity:0.97000002;fill:url(#radialGradient925);fill-opacity:1;fill-rule:nonzero;stroke:#000000;stroke-width:1.6815176;stroke-linecap:round;stroke-linejoin:miter;stroke-miterlimit:4;stroke-dasharray:none;stroke-dashoffset:0;stroke-opacity:1;paint-order:markers fill stroke"
       d="m 471.61624,-638.90732 a 631.7601,204.6547 74.115761 0 0 54.4794,123.90247 631.7601,204.6547 74.115761 0 0 332.28838,146.82727 631.7601,204.6547 74.115761 0 0 -8.91167,-371.60135 512.52656,613.96411 74.115761 0 1 -377.85611,100.87161 z"
       id="path914"
       inkscape:connector-curvature="0" />
    <path
       inkscape:connector-curvature="0"
       style="opacity:0.97000002;fill:#191011;fill-opacity:0.30693072;fill-rule:nonzero;stroke:#000000;stroke-width:0;stroke-linecap:round;stroke-linejoin:miter;stroke-miterlimit:4;stroke-dasharray:none;stroke-dashoffset:0;stroke-opacity:1;paint-order:markers fill stroke"
       d="m 1067.8787,-709.65528 a 201.86854,623.15937 11.792223 0 0 -9.1772,133.19231 201.86854,623.15937 11.792223 0 0 222.9937,280.49733 201.86854,623.15937 11.792223 0 0 162.4664,-328.68721 605.60563,505.54906 11.792223 0 1 -376.2829,-85.00243 z"
       id="path914-9-2" />
    <path
       inkscape:connector-curvature="0"
       style="opacity:0.97000002;fill:url(#radialGradient925-3);fill-opacity:1;fill-rule:nonzero;stroke:#000000;stroke-width:1.65862548;stroke-linecap:round;stroke-linejoin:miter;stroke-miterlimit:4;stroke-dasharray:none;stroke-dashoffset:0;stroke-opacity:1;paint-order:markers fill stroke"
       d="m 1039.4361,-748.75491 a 201.86854,623.15937 11.792223 0 0 -9.1772,133.19231 201.86854,623.15937 11.792223 0 0 222.9937,280.49732 201.86854,623.15937 11.792223 0 0 162.4664,-328.6872 605.60563,505.54905 11.792223 0 1 -376.2829,-85.00243 z"
       id="path914-9" />
    <path
       style="opacity:0.97000002;fill:#fff6f7;fill-opacity:1;fill-rule:nonzero;stroke:#000000;stroke-width:1.39212286;stroke-linecap:round;stroke-linejoin:miter;stroke-miterlimit:4;stroke-dasharray:none;stroke-dashoffset:0;stroke-opacity:1;paint-order:markers fill stroke"
       d="m 1299.477,-565.44471 a 51.142246,56.555815 11.792223 0 0 25.3962,-2.41038 51.142246,56.555815 11.792223 0 0 32.1199,-32.85298 87.01279,69.509452 11.792223 0 1 -8.0915,2.33589 87.01279,69.509452 11.792223 0 1 -90.3392,-22.04107 51.142246,56.555815 11.792223 0 0 2.1488,17.91236 l 0.027,0.0967 a 51.142246,56.555815 11.792223 0 0 38.7386,36.95941 z"
       id="path951-0-4-5"
       inkscape:connector-curvature="0" />
    <path
       style="opacity:0.97000002;fill:#fff6f7;fill-opacity:1;fill-rule:nonzero;stroke:#000000;stroke-width:2.20575857;stroke-linecap:round;stroke-linejoin:miter;stroke-miterlimit:4;stroke-dasharray:none;stroke-dashoffset:0;stroke-opacity:1;paint-order:markers fill stroke"
       d="m 1178.0486,-455.21464 a 87.995901,82.519297 13.431138 0 0 -43.1832,2.89922 87.995901,82.519297 13.431138 0 0 -52.1293,47.50393 149.69753,101.43159 11.199172 0 1 13.6274,-3.22989 149.69753,101.43159 11.199172 0 1 156.1667,34.71645 87.995901,82.519297 13.431138 0 0 -5.165,-26.40054 l -0.055,-0.14298 a 87.995901,82.519297 13.431138 0 0 -69.2617,-55.34616 z"
       id="path951-0-5-8"
       inkscape:connector-curvature="0" />
    <path
       style="opacity:0.97000002;fill:#555555;fill-opacity:1;fill-rule:nonzero;stroke:#000000;stroke-width:1.41133666;stroke-linecap:round;stroke-linejoin:miter;stroke-miterlimit:4;stroke-dasharray:none;stroke-dashoffset:0;stroke-opacity:1;paint-order:markers fill stroke"
       d="m 615.98013,-585.74977 a 57.33639,51.848102 74.115761 0 0 -21.66562,14.1227 57.33639,51.848102 74.115761 0 0 -13.3674,44.62057 70.46881,88.213723 74.115761 0 1 6.16452,-5.9073 70.46881,88.213723 74.115761 0 1 91.48608,-22.75109 57.33639,51.848102 74.115761 0 0 -10.36373,-15.0701 l -0.0701,-0.074 a 57.33639,51.848102 74.115761 0 0 -52.18366,-14.9408 z"
       id="path951"
       inkscape:connector-curvature="0" />
    <path
       style="opacity:0.97000002;fill:#555555;fill-opacity:1;fill-rule:nonzero;stroke:#000000;stroke-width:1.41133666;stroke-linecap:round;stroke-linejoin:miter;stroke-miterlimit:4;stroke-dasharray:none;stroke-dashoffset:0;stroke-opacity:1;paint-order:markers fill stroke"
       d="m 767.93038,-623.47299 a 57.33639,51.848102 74.115761 0 0 -21.66565,14.12271 57.33639,51.848102 74.115761 0 0 -13.36739,44.62057 70.468811,88.213726 74.115761 0 1 6.16453,-5.90731 70.468811,88.213726 74.115761 0 1 91.48609,-22.75108 57.33639,51.848102 74.115761 0 0 -10.36375,-15.0701 l -0.0701,-0.074 a 57.33639,51.848102 74.115761 0 0 -52.18364,-14.9408 z"
       id="path951-0"
       inkscape:connector-curvature="0" />
    <path
       style="opacity:0.97000002;fill:#555555;fill-opacity:1;fill-rule:nonzero;stroke:#000000;stroke-width:1.85119915;stroke-linecap:round;stroke-linejoin:miter;stroke-miterlimit:4;stroke-dasharray:none;stroke-dashoffset:0;stroke-opacity:1;paint-order:markers fill stroke"
       d="m 756.20903,-397.35345 a 57.33399,89.206429 74.346444 0 0 38.42326,-19.35849 57.33399,89.206429 74.346444 0 0 29.42387,-49.65829 70.472393,151.76066 73.835502 0 1 -11.23333,7.4921 70.472393,151.76066 73.835502 0 1 -156.37463,43.0034 57.33399,89.206429 74.346444 0 0 14.90455,13.66413 l 0.10549,0.0631 a 57.33399,89.206429 74.346444 0 0 84.75086,4.79412 z"
       id="path951-0-5"
       inkscape:connector-curvature="0" />
    <path
       style="opacity:0.97000002;fill:#fff6f7;fill-opacity:1;fill-rule:nonzero;stroke:#000000;stroke-width:1.39212286;stroke-linecap:round;stroke-linejoin:miter;stroke-miterlimit:4;stroke-dasharray:none;stroke-dashoffset:0;stroke-opacity:1;paint-order:markers fill stroke"
       d="m 1130.8398,-601.91897 a 51.142246,56.555815 11.792223 0 0 25.3959,-2.41037 51.142246,56.555815 11.792223 0 0 32.1199,-32.85298 87.01279,69.509452 11.792223 0 1 -8.0912,2.3359 87.01279,69.509452 11.792223 0 1 -90.3393,-22.04109 51.142246,56.555815 11.792223 0 0 2.1486,17.91235 l 0.027,0.0967 a 51.142246,56.555815 11.792223 0 0 38.7387,36.95942 z"
       id="path951-0-4"
       inkscape:connector-curvature="0" />
    <g
       aria-label="Unfortunately, you lost this battle."
       transform="matrix(2.6731694,0,0,2.6731694,-1461.0001,-6002.9884)"
       style="font-style:normal;font-variant:normal;font-weight:normal;font-stretch:normal;font-size:40px;line-height:1.25;font-family:Balker;-inkscape-font-specification:'Balker, Normal';font-variant-ligatures:normal;font-variant-caps:normal;font-variant-numeric:normal;font-feature-settings:normal;text-align:start;letter-spacing:0px;word-spacing:0px;writing-mode:lr-tb;text-anchor:start;fill:#000000;fill-opacity:1;stroke:none"
       id="flowRoot1091">
      <path
         d="m 611.98437,2205.6675 v -0.1562 -21.7188 q 0,-1.0156 -0.99609,-1.0156 -0.99609,0 -0.99609,1.0156 v 21.543 0.1758 q 0,3.789 -3.00782,6.5625 -2.98828,2.7148 -7.30468,2.7148 -4.375,0 -7.36328,-2.7148 -2.89063,-2.6172 -3.00782,-6.1719 v -22.1094 q 0,-1.0156 -0.99609,-1.0156 -0.99609,0 -0.99609,1.0156 v 21.6016 0.1172 q 0,4.707 3.63281,7.9882 3.65234,3.2813 8.73047,3.2813 5.03906,0 8.67187,-3.2813 3.55469,-3.2421 3.63281,-7.832 z"
         style=""
         id="path1099" />
      <path
         d="m 629.52344,2203.7534 q -0.0391,-3.2031 -2.10938,-5.5273 -2.1289,-2.3633 -5.13672,-2.3633 -3.02734,0 -5.15625,2.3633 -0.0391,0.078 -0.0781,0.1172 v -1.5234 q 0,-0.9961 -0.9961,-0.9961 -0.99609,0 -0.99609,0.9961 v 18.9648 q 0,0.9961 0.99609,0.9961 0.9961,0 0.9961,-0.9961 v -12.2852 q 0.11719,-2.2656 1.5625,-3.8671 1.5625,-1.7774 3.67187,-1.7774 2.12891,0 3.69141,1.7774 1.48437,1.6796 1.52344,4.2382 v 11.9141 q 0,0.9961 0.99609,0.9961 0.99609,0 0.99609,-0.9961 z"
         style=""
         id="path1101" />
      <path
         d="m 634.62109,2183.7925 q 0,-1.0156 -0.99609,-1.0156 -0.99609,0 -0.99609,1.0156 v 6.6797 0.3125 8.4766 0.1171 0.1758 16.2305 q 0,0.9961 0.99609,0.9961 0.99609,0 0.99609,-0.9961 v -15.3906 h 7.28516 q 0.99609,0 0.99609,-1.0157 0,-0.996 -0.99609,-0.996 h -7.28516 v -7.9493 q 0.11719,-2.2851 1.5625,-3.8867 1.5625,-1.7578 3.67188,-1.7578 2.08984,0 3.65234,1.7578 1.5625,1.7188 1.5625,4.2383 0,0.9961 0.9961,0.9961 0.99609,0 0.99609,-0.9961 0,-3.2813 -2.10938,-5.6445 -2.08984,-2.3633 -5.09765,-2.3633 -3.02735,0 -5.15625,2.3633 -0.0391,0.078 -0.0781,0.1172 z"
         style=""
         id="path1103" />
      <path
         d="m 655.36328,2195.6284 q 4.23828,0 7.1875,3.1055 2.96875,3.086 2.96875,7.4414 0,4.4141 -2.96875,7.5196 -2.94922,3.0859 -7.1875,3.0859 -4.23828,0 -7.20703,-3.0859 -2.94922,-3.1055 -2.94922,-7.5196 0,-4.3554 2.94922,-7.4414 2.96875,-3.1055 7.20703,-3.1055 z m 0,1.9922 q -3.35937,0 -5.76172,2.5 -2.40234,2.5 -2.40234,6.0547 0,3.6133 2.40234,6.1133 2.40235,2.5 5.76172,2.5 3.35938,0 5.76172,-2.5 2.40234,-2.5 2.40234,-6.1133 0,-3.5547 -2.40234,-6.0547 -2.40234,-2.5 -5.76172,-2.5 z"
         style=""
         id="path1105" />
      <path
         d="m 670.63672,2196.273 q 0,-1.0156 -0.9961,-1.0156 -0.99609,0 -0.99609,1.0156 v 19.5117 q 0,0.9961 0.99609,0.9961 0.9961,0 0.9961,-0.9961 v -12.832 q 0.11719,-2.2852 1.5625,-3.8868 1.5625,-1.7578 3.67187,-1.7578 2.08985,0 3.65235,1.7578 1.5625,1.7188 1.5625,4.2383 0,0.9961 0.99609,0.9961 0.99609,0 0.99609,-0.9961 0,-3.2812 -2.10937,-5.6445 -2.08984,-2.3633 -5.09766,-2.3633 -3.02734,0 -5.15625,2.3633 -0.0391,0.078 -0.0781,0.1172 z"
         style=""
         id="path1107" />
      <path
         d="m 693.29297,2197.3472 0.0391,18.4375 q 0,0.9961 0.99609,0.9961 0.9961,0 0.9961,-0.9961 l 0.0391,-18.3984 7.92969,-0.039 q 0.99609,0 0.99609,-0.9961 0,-1.0156 -0.99609,-1.0156 l -7.92969,-0.039 -0.0391,-5.1953 q 0,-0.9961 -0.9961,-0.9961 -0.99609,0 -0.99609,0.9961 l -0.0391,5.1953 -7.48047,0.039 q -0.99609,0 -0.99609,1.0156 0,0.9961 0.99609,0.9961 l 7.48047,0.039 z"
         style=""
         id="path1109" />
      <path
         d="m 726.22266,2196.6245 q 0,-0.9961 -0.9961,-0.9961 -0.99609,0 -0.99609,0.9961 v 9.9219 q -0.11719,3.3594 -2.40235,5.7617 -2.40234,2.4805 -5.76171,2.4805 -3.35938,0 -5.76172,-2.4805 -2.40235,-2.5195 -2.40235,-6.1328 v -0.1172 -9.4336 q 0,-0.9961 -0.99609,-0.9961 -0.99609,0 -0.99609,0.9961 v 10.6055 h 0.0391 q 0.3125,3.75 2.91015,6.4844 2.96875,3.0664 7.20704,3.0664 4.23828,0 7.20703,-3.0664 0.50781,-0.5664 0.95703,-1.1719 v 3.2422 q 0,0.9961 0.99609,0.9961 0.9961,0 0.9961,-0.9961 z"
         style=""
         id="path1111" />
      <path
         d="m 743.97656,2203.7534 q -0.0391,-3.2031 -2.10937,-5.5273 -2.12891,-2.3633 -5.13672,-2.3633 -3.02735,0 -5.15625,2.3633 -0.0391,0.078 -0.0781,0.1172 v -1.5234 q 0,-0.9961 -0.99609,-0.9961 -0.99609,0 -0.99609,0.9961 v 18.9648 q 0,0.9961 0.99609,0.9961 0.99609,0 0.99609,-0.9961 v -12.2852 q 0.11719,-2.2656 1.5625,-3.8671 1.5625,-1.7774 3.67188,-1.7774 2.1289,0 3.6914,1.7774 1.48438,1.6796 1.52344,4.2382 v 11.9141 q 0,0.9961 0.9961,0.9961 0.99609,0 0.99609,-0.9961 z"
         style=""
         id="path1113" />
      <path
         d="m 757.23828,2195.6284 q -4.23828,0 -7.20703,3.1055 -2.94922,3.086 -2.94922,7.4414 0,4.4141 2.94922,7.5391 2.96875,3.0664 7.20703,3.0664 4.23828,0 7.20703,-3.0664 0.46875,-0.5274 0.91797,-1.0938 v 0.7227 h 0.0391 v 2.4414 q 0,0.9961 0.9961,0.9961 0.99609,0 0.99609,-0.9961 v -2.4414 h 0.0391 v -14.7266 h -0.0391 v -1.9922 q 0,-0.9961 -0.99609,-0.9961 -0.9961,0 -0.9961,0.9961 v 1.9922 h -0.0391 v 1.211 q -0.44922,-0.5664 -0.91797,-1.0743 -2.96875,-3.125 -7.20703,-3.125 z m 0,1.9922 q 3.35938,0 5.76172,2.5196 2.07031,2.207 2.36328,5.1953 v 1.7383 q -0.29297,3.0273 -2.36328,5.2343 -2.40234,2.4805 -5.76172,2.4805 -3.35937,0 -5.76172,-2.4805 -2.40234,-2.5195 -2.40234,-6.1328 0,-3.5547 2.40234,-6.0351 2.40235,-2.5196 5.76172,-2.5196 z"
         style=""
         id="path1115" />
      <path
         d="m 779.15234,2197.3472 0.0391,18.4375 q 0,0.9961 0.99609,0.9961 0.99609,0 0.99609,-0.9961 l 0.0391,-18.3984 7.92968,-0.039 q 0.9961,0 0.9961,-0.9961 0,-1.0156 -0.9961,-1.0156 l -7.92968,-0.039 -0.0391,-5.1953 q 0,-0.9961 -0.99609,-0.9961 -0.99609,0 -0.99609,0.9961 l -0.0391,5.1953 -7.48047,0.039 q -0.99609,0 -0.99609,1.0156 0,0.9961 0.99609,0.9961 l 7.48047,0.039 z"
         style=""
         id="path1117" />
      <path
         d="m 811.65234,2209.3394 q -0.0781,-0.918 -1.01562,-0.918 -1.11328,0 -0.9961,1.0742 0.11719,1.25 -2.07031,3.086 -2.55859,2.1679 -5.72265,2.1679 -3.35938,0 -5.76172,-2.4023 -2.40235,-2.4023 -2.40235,-5.7617 0,-1.5625 0.48828,-2.9688 l 16.11329,0.039 v -0.039 q 0.3125,0 0.52734,-0.1562 l 0.0391,-0.039 q 0.15625,-0.1172 0.23438,-0.293 0.0781,-0.1757 0.0781,-0.4687 v -0.1172 q -0.0391,-0.3125 -0.15625,-0.5664 -2.32422,-6.2305 -9.12109,-6.2305 -4.19922,0 -7.20703,3.3203 -2.98828,3.2813 -2.98828,7.5196 0,4.1992 2.94921,7.207 3.00782,2.9492 7.20704,2.9492 3.78906,0 6.99218,-2.6367 3.00782,-2.4805 2.8125,-4.7656 z m -3.00781,-7.7539 -13.4375,0.039 q 0.39063,-0.6054 0.91797,-1.1914 2.48047,-2.6953 5.76172,-2.6953 3.16406,0 5,1.4453 1.03515,0.8789 1.75781,2.4024 z"
         style=""
         id="path1119" />
      <path
         d="m 816.41797,2183.7925 v 31.9922 q 0,0.9961 -0.9961,0.9961 -0.99609,0 -0.99609,-0.9961 v -31.9922 q 0,-1.0156 0.99609,-1.0156 0.9961,0 0.9961,1.0156 z"
         style=""
         id="path1121" />
      <path
         d="m 827.45312,2219.2222 q 0,-0.9961 -0.99609,-0.9961 -0.99609,0 -0.99609,0.9961 0,3.2812 2.07031,5.6445 2.12891,2.3633 5.15625,2.3633 3.00781,0 5.09766,-2.3633 2.07031,-2.3242 2.1875,-5.6054 v -22.6368 q 0,-0.9961 -0.9961,-0.9961 -0.99609,0 -0.99609,0.9961 v 9.9219 q -0.11719,3.3594 -2.40235,5.7617 -2.40234,2.4805 -5.76171,2.4805 -3.35938,0 -5.76172,-2.4805 -2.40235,-2.5195 -2.40235,-6.1328 v -0.1172 -9.7851 q 0,-1.0156 -0.99609,-1.0156 -0.99609,0 -0.99609,1.0156 v 9.9023 q 0,4.4141 2.94921,7.5391 2.96875,3.0664 7.20704,3.0664 4.23828,0 7.20703,-3.0664 0.50781,-0.5664 0.95703,-1.1719 v 3.2031 l -0.0781,3.711 q -0.0781,2.3633 -1.5625,4.0039 -1.5625,1.7578 -3.65234,1.7578 -2.10938,0 -3.67188,-1.7578 -1.5625,-1.7188 -1.5625,-4.2383 z"
         style=""
         id="path1123" />
      <path
         d="m 849.97266,2212.6206 q 0,2.7149 -1.6211,4.7461 -1.62109,2.0508 -4.02344,2.0508 -0.99609,0 -0.99609,-0.9961 0,-0.9961 0.99609,-0.9961 1.40625,0 2.51954,-1.3672 1.13281,-1.3476 1.13281,-3.4375 0,-0.9961 0.99609,-0.9961 0.9961,0 0.9961,0.9961 z"
         style=""
         id="path1125" />
      <path
         d="m 869.79687,2219.2222 q 0,-0.9961 -0.99609,-0.9961 -0.99609,0 -0.99609,0.9961 0,3.2812 2.07031,5.6445 2.12891,2.3633 5.15625,2.3633 3.00781,0 5.09766,-2.3633 2.07031,-2.3242 2.1875,-5.6054 v -22.6368 q 0,-0.9961 -0.9961,-0.9961 -0.99609,0 -0.99609,0.9961 v 9.9219 q -0.11719,3.3594 -2.40235,5.7617 -2.40234,2.4805 -5.76171,2.4805 -3.35938,0 -5.76172,-2.4805 -2.40235,-2.5195 -2.40235,-6.1328 v -0.1172 -9.7851 q 0,-1.0156 -0.99609,-1.0156 -0.99609,0 -0.99609,1.0156 v 9.9023 q 0,4.4141 2.94921,7.5391 2.96875,3.0664 7.20704,3.0664 4.23828,0 7.20703,-3.0664 0.50781,-0.5664 0.95703,-1.1719 v 3.2031 l -0.0781,3.711 q -0.0781,2.3633 -1.5625,4.0039 -1.5625,1.7578 -3.65234,1.7578 -2.10938,0 -3.67188,-1.7578 -1.5625,-1.7188 -1.5625,-4.2383 z"
         style=""
         id="path1127" />
      <path
         d="m 895.67578,2195.6284 q 4.23828,0 7.1875,3.1055 2.96875,3.086 2.96875,7.4414 0,4.4141 -2.96875,7.5196 -2.94922,3.0859 -7.1875,3.0859 -4.23828,0 -7.20703,-3.0859 -2.94922,-3.1055 -2.94922,-7.5196 0,-4.3554 2.94922,-7.4414 2.96875,-3.1055 7.20703,-3.1055 z m 0,1.9922 q -3.35937,0 -5.76172,2.5 -2.40234,2.5 -2.40234,6.0547 0,3.6133 2.40234,6.1133 2.40235,2.5 5.76172,2.5 3.35938,0 5.76172,-2.5 2.40234,-2.5 2.40234,-6.1133 0,-3.5547 -2.40234,-6.0547 -2.40234,-2.5 -5.76172,-2.5 z"
         style=""
         id="path1129" />
      <path
         d="m 929.26953,2196.6245 q 0,-0.9961 -0.99609,-0.9961 -0.9961,0 -0.9961,0.9961 v 9.9219 q -0.11718,3.3594 -2.40234,5.7617 -2.40234,2.4805 -5.76172,2.4805 -3.35937,0 -5.76172,-2.4805 -2.40234,-2.5195 -2.40234,-6.1328 v -0.1172 -9.4336 q 0,-0.9961 -0.9961,-0.9961 -0.99609,0 -0.99609,0.9961 v 10.6055 h 0.0391 q 0.3125,3.75 2.91016,6.4844 2.96875,3.0664 7.20703,3.0664 4.23828,0 7.20703,-3.0664 0.50781,-0.5664 0.95703,-1.1719 v 3.2422 q 0,0.9961 0.9961,0.9961 0.99609,0 0.99609,-0.9961 z"
         style=""
         id="path1131" />
      <path
         d="m 943.37109,2183.7925 v 31.9922 q 0,0.9961 -0.99609,0.9961 -0.99609,0 -0.99609,-0.9961 v -31.9922 q 0,-1.0156 0.99609,-1.0156 0.99609,0 0.99609,1.0156 z"
         style=""
         id="path1133" />
      <path
         d="m 956.76953,2195.6284 q 4.23828,0 7.1875,3.1055 2.96875,3.086 2.96875,7.4414 0,4.4141 -2.96875,7.5196 -2.94922,3.0859 -7.1875,3.0859 -4.23828,0 -7.20703,-3.0859 -2.94922,-3.1055 -2.94922,-7.5196 0,-4.3554 2.94922,-7.4414 2.96875,-3.1055 7.20703,-3.1055 z m 0,1.9922 q -3.35937,0 -5.76172,2.5 -2.40234,2.5 -2.40234,6.0547 0,3.6133 2.40234,6.1133 2.40235,2.5 5.76172,2.5 3.35938,0 5.76172,-2.5 2.40234,-2.5 2.40234,-6.1133 0,-3.5547 -2.40234,-6.0547 -2.40234,-2.5 -5.76172,-2.5 z"
         style=""
         id="path1135" />
      <path
         d="m 986.84766,2201.3511 q 0,-1.5234 -1.95313,-2.7734 -2.16797,-1.3086 -5.41016,-1.3086 -3.24218,0 -5.39062,1.3086 -1.97266,1.25 -1.97266,2.7734 0,1.5039 1.97266,2.7539 2.14844,1.3281 5.39062,1.3281 3.96485,0 7.05079,1.4649 3.47656,1.6406 3.47656,4.2383 0,2.5781 -3.16406,4.1992 -2.8711,1.4844 -6.75782,1.4844 -3.92578,0 -6.79687,-1.4844 -3.16406,-1.5821 -3.16406,-4.1992 0,-0.9961 0.99609,-0.9961 0.99609,0 0.99609,0.9961 0,1.3281 2.08985,2.4414 2.36328,1.25 5.8789,1.25 3.51563,0 5.83985,-1.25 2.07031,-1.1133 2.07031,-2.4414 0,-1.2696 -2.30469,-2.4219 -2.61719,-1.2891 -6.25,-1.2891 -3.63281,0 -6.40625,-1.6406 -2.91015,-1.7578 -2.91015,-4.4336 0,-2.6953 2.91015,-4.4531 2.77344,-1.6406 6.44531,-1.6406 3.73047,0 6.44532,1.6406 2.91015,1.7578 2.91015,4.4531 0,0.9961 -0.99609,0.9961 -0.99609,0 -0.99609,-0.9961 z"
         style=""
         id="path1137" />
      <path
         d="m 999.15234,2197.3472 0.0391,18.4375 q 0,0.9961 0.99609,0.9961 0.9961,0 0.9961,-0.9961 l 0.039,-18.3984 7.9296,-0.039 q 0.9961,0 0.9961,-0.9961 0,-1.0156 -0.9961,-1.0156 l -7.9296,-0.039 -0.039,-5.1953 q 0,-0.9961 -0.9961,-0.9961 -0.99609,0 -0.99609,0.9961 l -0.0391,5.1953 -7.48047,0.039 q -0.99609,0 -0.99609,1.0156 0,0.9961 0.99609,0.9961 l 7.48047,0.039 z"
         style=""
         id="path1139" />
      <path
         d="m 1029.0742,2197.3472 0.039,18.4375 q 0,0.9961 0.9961,0.9961 0.9961,0 0.9961,-0.9961 l 0.039,-18.3984 7.9297,-0.039 q 0.9961,0 0.9961,-0.9961 0,-1.0156 -0.9961,-1.0156 l -7.9297,-0.039 -0.039,-5.1953 q 0,-0.9961 -0.9961,-0.9961 -0.9961,0 -0.9961,0.9961 l -0.039,5.1953 -7.4805,0.039 q -0.996,0 -0.996,1.0156 0,0.9961 0.996,0.9961 l 7.4805,0.039 z"
         style=""
         id="path1141" />
      <path
         d="m 1043.6836,2183.7925 q 0,-1.0156 -0.9961,-1.0156 -0.9961,0 -0.9961,1.0156 v 31.9922 q 0,0.9961 0.9961,0.9961 0.9961,0 0.9961,-0.9961 v -9.9609 q 0.1172,-3.3204 2.4023,-5.6836 2.4024,-2.5196 5.7618,-2.5196 3.3593,0 5.7617,2.5196 2.3633,2.4414 2.4023,5.9179 v 0.1172 9.6094 q 0,0.9961 0.9961,0.9961 0.9961,0 0.9961,-0.9961 v -9.4336 -0.1758 -0.1172 q -0.039,-4.2773 -2.9492,-7.3047 -2.9688,-3.125 -7.207,-3.125 -4.2383,0 -7.2071,3.125 -0.5078,0.5469 -0.957,1.1133 z"
         style=""
         id="path1143" />
      <path
         d="m 1067.1992,2202.6206 v 13.1641 q 0,0.9961 -0.9961,0.9961 -0.9961,0 -0.9961,-0.9961 v -13.1641 q 0,-0.9961 0.9961,-0.9961 0.9961,0 0.9961,0.9961 z m -1.9922,-3.125 v -2.9882 q 0,-0.9961 0.9961,-0.9961 0.9961,0 0.9961,0.9961 v 2.9882 q 0,1.0157 -0.9961,1.0157 -0.9961,0 -0.9961,-1.0157 z"
         style=""
         id="path1145" />
      <path
         d="m 1087.2383,2201.3511 q 0,-1.5234 -1.9531,-2.7734 -2.168,-1.3086 -5.4102,-1.3086 -3.2422,0 -5.3906,1.3086 -1.9727,1.25 -1.9727,2.7734 0,1.5039 1.9727,2.7539 2.1484,1.3281 5.3906,1.3281 3.9648,0 7.0508,1.4649 3.4765,1.6406 3.4765,4.2383 0,2.5781 -3.164,4.1992 -2.8711,1.4844 -6.7578,1.4844 -3.9258,0 -6.7969,-1.4844 -3.1641,-1.5821 -3.1641,-4.1992 0,-0.9961 0.9961,-0.9961 0.9961,0 0.9961,0.9961 0,1.3281 2.0899,2.4414 2.3632,1.25 5.8789,1.25 3.5156,0 5.8398,-1.25 2.0703,-1.1133 2.0703,-2.4414 0,-1.2696 -2.3047,-2.4219 -2.6171,-1.2891 -6.25,-1.2891 -3.6328,0 -6.4062,-1.6406 -2.9102,-1.7578 -2.9102,-4.4336 0,-2.6953 2.9102,-4.4531 2.7734,-1.6406 6.4453,-1.6406 3.7305,0 6.4453,1.6406 2.9102,1.7578 2.9102,4.4531 0,0.9961 -0.9961,0.9961 -0.9961,0 -0.9961,-0.9961 z"
         style=""
         id="path1147" />
      <path
         d="m 1112.082,2195.6284 q -4.2382,0 -7.207,3.125 -0.5078,0.5469 -0.957,1.1133 v -16.0742 q 0,-1.0156 -0.9961,-1.0156 -0.9961,0 -0.9961,1.0156 v 31.9922 q 0,0.9961 0.9961,0.9961 0.9961,0 0.9961,-0.9961 v -3.2422 q 0.4492,0.6055 0.957,1.1719 2.9688,3.0664 7.207,3.0664 4.2383,0 7.2071,-3.0664 2.9492,-3.125 2.9492,-7.5391 0,-4.3554 -2.9492,-7.4219 -2.9688,-3.125 -7.2071,-3.125 z m 0,1.9922 q 3.3594,0 5.7618,2.5 2.4023,2.5 2.4023,6.0547 0,3.6133 -2.4023,6.1328 -2.4024,2.4805 -5.7618,2.4805 -3.3593,0 -5.7617,-2.4805 -2.4023,-2.5195 -2.4023,-6.1328 0,-3.5547 2.4023,-6.0351 2.4024,-2.5196 5.7617,-2.5196 z"
         style=""
         id="path1149" />
      <path
         d="m 1135.5195,2195.6284 q -4.2382,0 -7.207,3.1055 -2.9492,3.086 -2.9492,7.4414 0,4.4141 2.9492,7.5391 2.9688,3.0664 7.207,3.0664 4.2383,0 7.2071,-3.0664 0.4687,-0.5274 0.9179,-1.0938 v 0.7227 h 0.039 v 2.4414 q 0,0.9961 0.9961,0.9961 0.9961,0 0.9961,-0.9961 v -2.4414 h 0.039 v -14.7266 h -0.039 v -1.9922 q 0,-0.9961 -0.9961,-0.9961 -0.9961,0 -0.9961,0.9961 v 1.9922 h -0.039 v 1.211 q -0.4492,-0.5664 -0.9179,-1.0743 -2.9688,-3.125 -7.2071,-3.125 z m 0,1.9922 q 3.3594,0 5.7618,2.5196 2.0703,2.207 2.3632,5.1953 v 1.7383 q -0.2929,3.0273 -2.3632,5.2343 -2.4024,2.4805 -5.7618,2.4805 -3.3593,0 -5.7617,-2.4805 -2.4023,-2.5195 -2.4023,-6.1328 0,-3.5547 2.4023,-6.0351 2.4024,-2.5196 5.7617,-2.5196 z"
         style=""
         id="path1151" />
      <path
         d="m 1157.4336,2197.3472 0.039,18.4375 q 0,0.9961 0.9961,0.9961 0.996,0 0.996,-0.9961 l 0.039,-18.3984 7.9297,-0.039 q 0.9961,0 0.9961,-0.9961 0,-1.0156 -0.9961,-1.0156 l -7.9297,-0.039 -0.039,-5.1953 q 0,-0.9961 -0.996,-0.9961 -0.9961,0 -0.9961,0.9961 l -0.039,5.1953 -7.4805,0.039 q -0.9961,0 -0.9961,1.0156 0,0.9961 0.9961,0.9961 l 7.4805,0.039 z"
         style=""
         id="path1153" />
      <path
         d="m 1178.5273,2197.3472 0.039,18.4375 q 0,0.9961 0.9961,0.9961 0.9961,0 0.9961,-0.9961 l 0.039,-18.3984 7.9296,-0.039 q 0.9961,0 0.9961,-0.9961 0,-1.0156 -0.9961,-1.0156 l -7.9296,-0.039 -0.039,-5.1953 q 0,-0.9961 -0.9961,-0.9961 -0.9961,0 -0.9961,0.9961 l -0.039,5.1953 -7.4804,0.039 q -0.9961,0 -0.9961,1.0156 0,0.9961 0.9961,0.9961 l 7.4804,0.039 z"
         style=""
         id="path1155" />
      <path
         d="m 1193.1367,2183.7925 v 31.9922 q 0,0.9961 -0.9961,0.9961 -0.9961,0 -0.9961,-0.9961 v -31.9922 q 0,-1.0156 0.9961,-1.0156 0.9961,0 0.9961,1.0156 z"
         style=""
         id="path1157" />
      <path
         d="m 1216.2617,2209.3394 q -0.078,-0.918 -1.0156,-0.918 -1.1133,0 -0.9961,1.0742 0.1172,1.25 -2.0703,3.086 -2.5586,2.1679 -5.7227,2.1679 -3.3593,0 -5.7617,-2.4023 -2.4023,-2.4023 -2.4023,-5.7617 0,-1.5625 0.4883,-2.9688 l 16.1132,0.039 v -0.039 q 0.3125,0 0.5274,-0.1562 l 0.039,-0.039 q 0.1563,-0.1172 0.2344,-0.293 0.078,-0.1757 0.078,-0.4687 v -0.1172 q -0.039,-0.3125 -0.1562,-0.5664 -2.3242,-6.2305 -9.1211,-6.2305 -4.1992,0 -7.207,3.3203 -2.9883,3.2813 -2.9883,7.5196 0,4.1992 2.9492,7.207 3.0078,2.9492 7.207,2.9492 3.7891,0 6.9922,-2.6367 3.0078,-2.4805 2.8125,-4.7656 z m -3.0078,-7.7539 -13.4375,0.039 q 0.3906,-0.6054 0.918,-1.1914 2.4804,-2.6953 5.7617,-2.6953 3.1641,0 5,1.4453 1.0352,0.8789 1.7578,2.4024 z"
         style=""
         id="path1159" />
      <path
         d="m 1221.75,2211.6245 q 1.0742,0 1.8945,0.7422 0.8203,0.7422 0.8203,1.8164 0,1.1133 -0.8203,1.8555 -0.8203,0.7422 -1.8945,0.7422 -1.0742,0 -1.8945,-0.7422 -0.8203,-0.7422 -0.8203,-1.8555 0,-1.0742 0.8203,-1.8164 0.8203,-0.7422 1.8945,-0.7422 z m 0,1.9922 q -0.7227,0 -0.7227,0.5664 0,0.6055 0.7227,0.6055 0.7227,0 0.7227,-0.6055 0,-0.5664 -0.7227,-0.5664 z"
         style=""
         id="path1161" />
    </g>
  </g>
</svg>
