<?xml version="1.0" encoding="UTF-8" standalone="no"?>
<!-- Created with Inkscape (http://www.inkscape.org/) -->

<svg
   xmlns:dc="http://purl.org/dc/elements/1.1/"
   xmlns:cc="http://creativecommons.org/ns#"
   xmlns:rdf="http://www.w3.org/1999/02/22-rdf-syntax-ns#"
   xmlns:svg="http://www.w3.org/2000/svg"
   xmlns="http://www.w3.org/2000/svg"
   xmlns:xlink="http://www.w3.org/1999/xlink"
   xmlns:sodipodi="http://sodipodi.sourceforge.net/DTD/sodipodi-0.dtd"
   xmlns:inkscape="http://www.inkscape.org/namespaces/inkscape"
   width="300mm"
   height="162mm"
   viewBox="0 0 300 162"
   version="1.1"
   id="svg2436"
   inkscape:version="0.92.2 2405546, 2018-03-11"
   sodipodi:docname="playButton.svg">
  <defs
     id="defs2430">
    <linearGradient
       inkscape:collect="always"
       id="linearGradient2995">
      <stop
         style="stop-color:#ff8f00;stop-opacity:1;"
         offset="0"
         id="stop2991" />
      <stop
         style="stop-color:#fff900;stop-opacity:0.98984772"
         offset="1"
         id="stop2993" />
    </linearGradient>
    <radialGradient
       inkscape:collect="always"
       xlink:href="#linearGradient2995"
       id="radialGradient2997"
       cx="149.67857"
       cy="193.81248"
       fx="149.67857"
       fy="193.81248"
       r="150.66667"
       gradientTransform="matrix(1.4563639,-2.5480088e-5,1.3332169e-5,0.76175079,-67.322388,68.625921)"
       gradientUnits="userSpaceOnUse" />
  </defs>
  <sodipodi:namedview
     id="base"
     pagecolor="#ffffff"
     bordercolor="#666666"
     borderopacity="1.0"
     inkscape:pageopacity="0.0"
     inkscape:pageshadow="2"
     inkscape:zoom="0.35"
     inkscape:cx="184.14947"
     inkscape:cy="560"
     inkscape:document-units="mm"
     inkscape:current-layer="layer1"
     showgrid="false"
     inkscape:window-width="1920"
     inkscape:window-height="1007"
     inkscape:window-x="0"
     inkscape:window-y="0"
     inkscape:window-maximized="1" />
  <metadata
     id="metadata2433">
    <rdf:RDF>
      <cc:Work
         rdf:about="">
        <dc:format>image/svg+xml</dc:format>
        <dc:type
           rdf:resource="http://purl.org/dc/dcmitype/StillImage" />
        <dc:title></dc:title>
      </cc:Work>
    </rdf:RDF>
  </metadata>
  <g
     inkscape:label="Layer 1"
     inkscape:groupmode="layer"
     id="layer1"
     transform="translate(0,-135)">
    <rect
       style="opacity:1;fill:url(#radialGradient2997);fill-opacity:1;fill-rule:nonzero;stroke:#000000;stroke-width:5;stroke-linecap:round;stroke-linejoin:miter;stroke-miterlimit:4;stroke-dasharray:none;stroke-dashoffset:0;stroke-opacity:1;paint-order:markers fill stroke"
       id="rect2981"
       width="296.33334"
       height="156.48215"
       x="2.5"
       y="138.01785"
       ry="78.241066" />
    <g
       aria-label="Play"
       transform="matrix(1.2720253,0,0,1.2720253,-149.47105,-103.84298)"
       style="font-style:normal;font-variant:normal;font-weight:normal;font-stretch:normal;font-size:93.96959686px;line-height:1.25;font-family:Balker;-inkscape-font-specification:'Balker, Normal';font-variant-ligatures:normal;font-variant-caps:normal;font-variant-numeric:normal;font-feature-settings:normal;text-align:start;letter-spacing:0px;word-spacing:0px;writing-mode:lr-tb;text-anchor:start;fill:#ffffff;fill-opacity:0.9923858;stroke:#030303;stroke-width:1.57229578;stroke-miterlimit:4;stroke-dasharray:none;stroke-opacity:1"
       id="flowRoot2983">
      <path
         d="m 162.34006,202.02604 q 0,-2.38594 -2.34006,-2.38594 -2.34006,0 -2.34006,2.38594 v 20.73939 0.96355 53.45439 q 0,2.34006 2.34006,2.34006 2.34006,0 2.34006,-2.34006 v -39.64343 q 0.55061,0.82591 1.23886,1.60593 6.01075,6.74489 14.63687,6.74489 8.672,0 14.59098,-6.74489 6.01075,-6.88254 6.01075,-16.38044 0,-9.49791 -6.01075,-16.24279 -5.91898,-6.88254 -14.59098,-6.88254 -8.62612,0 -14.63687,6.88254 -0.68825,0.73413 -1.23886,1.51416 z m 15.87573,2.34007 q 6.51547,0 11.19559,5.36838 4.68013,5.32249 4.68013,13.03094 0,7.70844 -4.68013,13.07682 -4.68012,5.36838 -11.19559,5.36838 -6.46959,0 -11.14972,-5.36838 -4.72601,-5.36838 -4.72601,-13.07682 v -0.73414 q 0.18354,-7.24961 4.72601,-12.2968 4.68013,-5.36838 11.14972,-5.36838 z"
         style=""
         id="path3056" />
      <path
         d="m 207.85659,202.02604 v 75.15733 q 0,2.34006 -2.34006,2.34006 -2.34007,0 -2.34007,-2.34006 v -75.15733 q 0,-2.38594 2.34007,-2.38594 2.34006,0 2.34006,2.38594 z"
         style=""
         id="path3058" />
      <path
         d="m 239.33273,229.8315 q -9.95674,0 -16.93104,7.29549 -6.92843,7.24961 -6.92843,17.48165 0,10.36969 6.92843,17.71107 6.9743,7.20372 16.93104,7.20372 9.95674,0 16.93105,-7.20372 1.1012,-1.23886 2.15653,-2.56948 v 1.69769 h 0.0918 v 5.73545 q 0,2.34006 2.34007,2.34006 2.34006,0 2.34006,-2.34006 v -5.73545 h 0.0918 v -34.59623 h -0.0918 v -4.68013 q 0,-2.34006 -2.34006,-2.34006 -2.34007,0 -2.34007,2.34006 v 4.68013 h -0.0918 v 2.84478 q -1.05533,-1.33062 -2.15653,-2.52359 -6.97431,-7.34138 -16.93105,-7.34138 z m 0,4.68013 q 7.89198,0 13.53566,5.91898 4.86366,5.18485 5.55192,12.20504 v 4.08364 q -0.68826,7.11195 -5.55192,12.2968 -5.64368,5.82722 -13.53566,5.82722 -7.89198,0 -13.53566,-5.82722 -5.64368,-5.91898 -5.64368,-14.40745 0,-8.35081 5.64368,-14.17803 5.64368,-5.91898 13.53566,-5.91898 z"
         style=""
         id="path3060" />
      <path
         d="m 289.2082,285.25888 q 0,-2.34006 -2.34007,-2.34006 -2.34006,0 -2.34006,2.34006 0,7.70844 4.86366,13.26036 5.00131,5.55191 12.11327,5.55191 7.06607,0 11.97562,-5.55191 4.86366,-5.46015 5.13896,-13.16859 v -53.17909 q 0,-2.34006 -2.34006,-2.34006 -2.34007,0 -2.34007,2.34006 v 23.30887 q -0.2753,7.89198 -5.64368,13.53566 -5.64368,5.82722 -13.53566,5.82722 -7.89198,0 -13.53566,-5.82722 -5.64368,-5.91898 -5.64368,-14.40745 v -0.2753 -22.98768 q 0,-2.38595 -2.34006,-2.38595 -2.34007,0 -2.34007,2.38595 v 23.26298 q 0,10.36969 6.92843,17.71107 6.9743,7.20372 16.93104,7.20372 9.95674,0 16.93105,-7.20372 1.19297,-1.33063 2.24829,-2.75302 v 7.52491 l -0.18353,8.71788 q -0.18354,5.55192 -3.67069,9.40614 -3.67069,4.12952 -8.58023,4.12952 -4.95543,0 -8.62612,-4.12952 -3.67068,-4.03776 -3.67068,-9.95674 z"
         style=""
         id="path3062" />
    </g>
  </g>
</svg>
